PWD /home/dik/Latex/Diki_Haryadi_CV_Latex
INPUT /opt/texlive/2022/texmf.cnf
INPUT /opt/texlive/2022/texmf-dist/web2c/texmf.cnf
INPUT /opt/texlive/2022/texmf-var/web2c/pdftex/pdflatex.fmt
INPUT /home/dik/Latex/Diki_Haryadi_CV_Latex/main.tex
OUTPUT main.log
INPUT /opt/texlive/2022/texmf-dist/tex/latex/xcolor/xcolor.sty
INPUT /opt/texlive/2022/texmf-dist/tex/latex/xcolor/xcolor.sty
INPUT ./altacv.cls
INPUT ./altacv.cls
INPUT altacv.cls
INPUT ./altacv.cls
INPUT ./altacv.cls
INPUT ./altacv.cls
INPUT ./altacv.cls
INPUT ./altacv.cls
INPUT altacv.cls
INPUT ./altacv.cls
INPUT altacv.cls
INPUT /opt/texlive/2022/texmf-dist/tex/latex/extsizes/extarticle.cls
INPUT /opt/texlive/2022/texmf-dist/tex/latex/extsizes/extarticle.cls
INPUT /opt/texlive/2022/texmf-dist/tex/latex/extsizes/extarticle.cls
INPUT /opt/texlive/2022/texmf-dist/tex/latex/extsizes/extarticle.cls
INPUT /opt/texlive/2022/texmf-dist/tex/latex/extsizes/extarticle.cls
INPUT /opt/texlive/2022/texmf-dist/tex/latex/extsizes/extarticle.cls
INPUT /opt/texlive/2022/texmf-dist/tex/latex/extsizes/extarticle.cls
INPUT /opt/texlive/2022/texmf-dist/tex/latex/extsizes/extarticle.cls
INPUT /opt/texlive/2022/texmf-dist/tex/latex/extsizes/extarticle.cls
INPUT /opt/texlive/2022/texmf-dist/tex/latex/extsizes/extarticle.cls
INPUT /opt/texlive/2022/texmf-dist/tex/latex/extsizes/extarticle.cls
INPUT /opt/texlive/2022/texmf-dist/tex/latex/extsizes/extarticle.cls
INPUT /opt/texlive/2022/texmf-dist/tex/latex/extsizes/extarticle.cls
INPUT /opt/texlive/2022/texmf-dist/tex/latex/extsizes/extarticle.cls
INPUT /opt/texlive/2022/texmf-dist/tex/latex/extsizes/extarticle.cls
INPUT /opt/texlive/2022/texmf-dist/tex/latex/base/size10.clo
INPUT /opt/texlive/2022/texmf-dist/tex/latex/base/size10.clo
INPUT /opt/texlive/2022/texmf-dist/tex/latex/base/size10.clo
INPUT /opt/texlive/2022/texmf-dist/tex/latex/base/size10.clo
INPUT /opt/texlive/2022/texmf-dist/tex/latex/base/exscale.sty
INPUT /opt/texlive/2022/texmf-dist/tex/latex/base/exscale.sty
INPUT /opt/texlive/2022/texmf-dist/tex/latex/base/exscale.sty
INPUT /opt/texlive/2022/texmf-dist/tex/latex/base/exscale.sty
INPUT /opt/texlive/2022/texmf-dist/tex/latex/base/exscale.sty
INPUT /opt/texlive/2022/texmf-dist/tex/latex/base/exscale.sty
INPUT /opt/texlive/2022/texmf-dist/tex/latex/base/exscale.sty
INPUT /opt/texlive/2022/texmf-dist/tex/latex/base/exscale.sty
INPUT /opt/texlive/2022/texmf-dist/tex/latex/base/exscale.sty
INPUT /opt/texlive/2022/texmf-dist/tex/latex/base/exscale.sty
INPUT /opt/texlive/2022/texmf-dist/tex/latex/base/exscale.sty
INPUT /opt/texlive/2022/texmf-dist/tex/latex/geometry/geometry.sty
INPUT /opt/texlive/2022/texmf-dist/tex/latex/geometry/geometry.sty
INPUT /opt/texlive/2022/texmf-dist/tex/latex/geometry/geometry.sty
INPUT /opt/texlive/2022/texmf-dist/tex/latex/geometry/geometry.sty
INPUT /opt/texlive/2022/texmf-dist/tex/latex/geometry/geometry.sty
INPUT /opt/texlive/2022/texmf-dist/tex/latex/geometry/geometry.sty
INPUT /opt/texlive/2022/texmf-dist/tex/latex/geometry/geometry.sty
INPUT /opt/texlive/2022/texmf-dist/tex/latex/geometry/geometry.sty
INPUT /opt/texlive/2022/texmf-dist/tex/latex/geometry/geometry.sty
INPUT /opt/texlive/2022/texmf-dist/tex/latex/geometry/geometry.sty
INPUT /opt/texlive/2022/texmf-dist/tex/latex/geometry/geometry.sty
INPUT /opt/texlive/2022/texmf-dist/tex/latex/graphics/keyval.sty
INPUT /opt/texlive/2022/texmf-dist/tex/latex/graphics/keyval.sty
INPUT /opt/texlive/2022/texmf-dist/tex/latex/graphics/keyval.sty
INPUT /opt/texlive/2022/texmf-dist/tex/latex/graphics/keyval.sty
INPUT /opt/texlive/2022/texmf-dist/tex/latex/graphics/keyval.sty
INPUT /opt/texlive/2022/texmf-dist/tex/latex/graphics/keyval.sty
INPUT /opt/texlive/2022/texmf-dist/tex/latex/graphics/keyval.sty
INPUT /opt/texlive/2022/texmf-dist/tex/latex/graphics/keyval.sty
INPUT /opt/texlive/2022/texmf-dist/tex/latex/graphics/keyval.sty
INPUT /opt/texlive/2022/texmf-dist/tex/latex/graphics/keyval.sty
INPUT /opt/texlive/2022/texmf-dist/tex/latex/graphics/keyval.sty
INPUT /opt/texlive/2022/texmf-dist/tex/generic/iftex/ifvtex.sty
INPUT /opt/texlive/2022/texmf-dist/tex/generic/iftex/ifvtex.sty
INPUT /opt/texlive/2022/texmf-dist/tex/generic/iftex/ifvtex.sty
INPUT /opt/texlive/2022/texmf-dist/tex/generic/iftex/ifvtex.sty
INPUT /opt/texlive/2022/texmf-dist/tex/generic/iftex/ifvtex.sty
INPUT /opt/texlive/2022/texmf-dist/tex/generic/iftex/ifvtex.sty
INPUT /opt/texlive/2022/texmf-dist/tex/generic/iftex/ifvtex.sty
INPUT /opt/texlive/2022/texmf-dist/tex/generic/iftex/ifvtex.sty
INPUT /opt/texlive/2022/texmf-dist/tex/generic/iftex/ifvtex.sty
INPUT /opt/texlive/2022/texmf-dist/tex/generic/iftex/ifvtex.sty
INPUT /opt/texlive/2022/texmf-dist/tex/generic/iftex/ifvtex.sty
INPUT /opt/texlive/2022/texmf-dist/tex/generic/iftex/iftex.sty
INPUT /opt/texlive/2022/texmf-dist/tex/generic/iftex/iftex.sty
INPUT /opt/texlive/2022/texmf-dist/tex/generic/iftex/iftex.sty
INPUT /opt/texlive/2022/texmf-dist/tex/generic/iftex/iftex.sty
INPUT /opt/texlive/2022/texmf-dist/tex/generic/iftex/iftex.sty
INPUT /opt/texlive/2022/texmf-dist/tex/generic/iftex/iftex.sty
INPUT /opt/texlive/2022/texmf-dist/tex/generic/iftex/iftex.sty
INPUT /opt/texlive/2022/texmf-dist/tex/generic/iftex/iftex.sty
INPUT /opt/texlive/2022/texmf-dist/tex/generic/iftex/iftex.sty
INPUT /opt/texlive/2022/texmf-dist/tex/generic/iftex/iftex.sty
INPUT /opt/texlive/2022/texmf-dist/tex/generic/iftex/iftex.sty
INPUT /opt/texlive/2022/texmf-dist/tex/latex/fontawesome/fontawesome.sty
INPUT /opt/texlive/2022/texmf-dist/tex/latex/fontawesome/fontawesome.sty
INPUT /opt/texlive/2022/texmf-dist/tex/latex/fontawesome/fontawesome.sty
INPUT /opt/texlive/2022/texmf-dist/tex/latex/fontawesome/fontawesome.sty
INPUT /opt/texlive/2022/texmf-dist/tex/latex/fontawesome/fontawesome.sty
INPUT /opt/texlive/2022/texmf-dist/tex/latex/fontawesome/fontawesome.sty
INPUT /opt/texlive/2022/texmf-dist/tex/latex/fontawesome/fontawesome.sty
INPUT /opt/texlive/2022/texmf-dist/tex/latex/fontawesome/fontawesome.sty
INPUT /opt/texlive/2022/texmf-dist/tex/latex/fontawesome/fontawesome.sty
INPUT /opt/texlive/2022/texmf-dist/tex/latex/fontawesome/fontawesome.sty
INPUT /opt/texlive/2022/texmf-dist/tex/latex/fontawesome/fontawesome.sty
INPUT /opt/texlive/2022/texmf-dist/tex/generic/iftex/ifxetex.sty
INPUT /opt/texlive/2022/texmf-dist/tex/generic/iftex/ifxetex.sty
INPUT /opt/texlive/2022/texmf-dist/tex/generic/iftex/ifxetex.sty
INPUT /opt/texlive/2022/texmf-dist/tex/generic/iftex/ifxetex.sty
INPUT /opt/texlive/2022/texmf-dist/tex/generic/iftex/ifxetex.sty
INPUT /opt/texlive/2022/texmf-dist/tex/generic/iftex/ifxetex.sty
INPUT /opt/texlive/2022/texmf-dist/tex/generic/iftex/ifxetex.sty
INPUT /opt/texlive/2022/texmf-dist/tex/generic/iftex/ifxetex.sty
INPUT /opt/texlive/2022/texmf-dist/tex/generic/iftex/ifxetex.sty
INPUT /opt/texlive/2022/texmf-dist/tex/generic/iftex/ifxetex.sty
INPUT /opt/texlive/2022/texmf-dist/tex/generic/iftex/ifxetex.sty
INPUT /opt/texlive/2022/texmf-dist/tex/generic/iftex/iftex.sty
INPUT /opt/texlive/2022/texmf-dist/tex/generic/iftex/ifluatex.sty
INPUT /opt/texlive/2022/texmf-dist/tex/generic/iftex/ifluatex.sty
INPUT /opt/texlive/2022/texmf-dist/tex/generic/iftex/ifluatex.sty
INPUT /opt/texlive/2022/texmf-dist/tex/generic/iftex/ifluatex.sty
INPUT /opt/texlive/2022/texmf-dist/tex/generic/iftex/ifluatex.sty
INPUT /opt/texlive/2022/texmf-dist/tex/generic/iftex/ifluatex.sty
INPUT /opt/texlive/2022/texmf-dist/tex/generic/iftex/ifluatex.sty
INPUT /opt/texlive/2022/texmf-dist/tex/generic/iftex/ifluatex.sty
INPUT /opt/texlive/2022/texmf-dist/tex/generic/iftex/ifluatex.sty
INPUT /opt/texlive/2022/texmf-dist/tex/generic/iftex/ifluatex.sty
INPUT /opt/texlive/2022/texmf-dist/tex/generic/iftex/ifluatex.sty
INPUT /opt/texlive/2022/texmf-dist/tex/generic/iftex/iftex.sty
INPUT /opt/texlive/2022/texmf-dist/tex/latex/fontawesome/fontawesomesymbols-generic.tex
INPUT /opt/texlive/2022/texmf-dist/tex/latex/fontawesome/fontawesomesymbols-generic.tex
INPUT /opt/texlive/2022/texmf-dist/tex/latex/fontawesome/fontawesomesymbols-generic.tex
INPUT /opt/texlive/2022/texmf-dist/tex/latex/fontawesome/fontawesomesymbols-generic.tex
INPUT /opt/texlive/2022/texmf-dist/tex/latex/fontawesome/fontawesomesymbols-pdftex.tex
INPUT /opt/texlive/2022/texmf-dist/tex/latex/fontawesome/fontawesomesymbols-pdftex.tex
INPUT /opt/texlive/2022/texmf-dist/tex/latex/fontawesome/fontawesomesymbols-pdftex.tex
INPUT /opt/texlive/2022/texmf-dist/tex/latex/fontawesome/fontawesomesymbols-pdftex.tex
INPUT /opt/texlive/2022/texmf-dist/tex/latex/xcolor/xcolor.sty
INPUT /opt/texlive/2022/texmf-dist/tex/latex/xcolor/xcolor.sty
INPUT /opt/texlive/2022/texmf-dist/tex/latex/xcolor/xcolor.sty
INPUT /opt/texlive/2022/texmf-dist/tex/latex/xcolor/xcolor.sty
INPUT /opt/texlive/2022/texmf-dist/tex/latex/xcolor/xcolor.sty
INPUT /opt/texlive/2022/texmf-dist/tex/latex/xcolor/xcolor.sty
INPUT /opt/texlive/2022/texmf-dist/tex/latex/xcolor/xcolor.sty
INPUT /opt/texlive/2022/texmf-dist/tex/latex/xcolor/xcolor.sty
INPUT /opt/texlive/2022/texmf-dist/tex/latex/xcolor/xcolor.sty
INPUT /opt/texlive/2022/texmf-dist/tex/latex/xcolor/xcolor.sty
INPUT /opt/texlive/2022/texmf-dist/tex/latex/xcolor/xcolor.sty
INPUT /opt/texlive/2022/texmf-dist/tex/latex/graphics-cfg/color.cfg
INPUT /opt/texlive/2022/texmf-dist/tex/latex/graphics-cfg/color.cfg
INPUT /opt/texlive/2022/texmf-dist/tex/latex/graphics-cfg/color.cfg
INPUT /opt/texlive/2022/texmf-dist/tex/latex/graphics-cfg/color.cfg
INPUT /opt/texlive/2022/texmf-dist/tex/latex/graphics-def/pdftex.def
INPUT /opt/texlive/2022/texmf-dist/tex/latex/graphics-def/pdftex.def
INPUT /opt/texlive/2022/texmf-dist/tex/latex/graphics-def/pdftex.def
INPUT /opt/texlive/2022/texmf-dist/tex/latex/graphics-def/pdftex.def
INPUT /opt/texlive/2022/texmf-dist/tex/latex/graphics/mathcolor.ltx
INPUT /opt/texlive/2022/texmf-dist/tex/latex/graphics/mathcolor.ltx
INPUT /opt/texlive/2022/texmf-dist/tex/latex/graphics/mathcolor.ltx
INPUT /opt/texlive/2022/texmf-dist/tex/latex/graphics/mathcolor.ltx
INPUT /opt/texlive/2022/texmf-dist/tex/latex/graphics/dvipsnam.def
INPUT /opt/texlive/2022/texmf-dist/tex/latex/graphics/dvipsnam.def
INPUT /opt/texlive/2022/texmf-dist/tex/latex/graphics/dvipsnam.def
INPUT /opt/texlive/2022/texmf-dist/tex/latex/graphics/dvipsnam.def
INPUT /opt/texlive/2022/texmf-dist/tex/latex/pgf/frontendlayer/tikz.sty
INPUT /opt/texlive/2022/texmf-dist/tex/latex/pgf/frontendlayer/tikz.sty
INPUT /opt/texlive/2022/texmf-dist/tex/latex/pgf/frontendlayer/tikz.sty
INPUT /opt/texlive/2022/texmf-dist/tex/latex/pgf/frontendlayer/tikz.sty
INPUT /opt/texlive/2022/texmf-dist/tex/latex/pgf/frontendlayer/tikz.sty
INPUT /opt/texlive/2022/texmf-dist/tex/latex/pgf/frontendlayer/tikz.sty
INPUT /opt/texlive/2022/texmf-dist/tex/latex/pgf/frontendlayer/tikz.sty
INPUT /opt/texlive/2022/texmf-dist/tex/latex/pgf/frontendlayer/tikz.sty
INPUT /opt/texlive/2022/texmf-dist/tex/latex/pgf/frontendlayer/tikz.sty
INPUT /opt/texlive/2022/texmf-dist/tex/latex/pgf/frontendlayer/tikz.sty
INPUT /opt/texlive/2022/texmf-dist/tex/latex/pgf/frontendlayer/tikz.sty
INPUT /opt/texlive/2022/texmf-dist/tex/latex/pgf/basiclayer/pgf.sty
INPUT /opt/texlive/2022/texmf-dist/tex/latex/pgf/basiclayer/pgf.sty
INPUT /opt/texlive/2022/texmf-dist/tex/latex/pgf/basiclayer/pgf.sty
INPUT /opt/texlive/2022/texmf-dist/tex/latex/pgf/basiclayer/pgf.sty
INPUT /opt/texlive/2022/texmf-dist/tex/latex/pgf/basiclayer/pgf.sty
INPUT /opt/texlive/2022/texmf-dist/tex/latex/pgf/basiclayer/pgf.sty
INPUT /opt/texlive/2022/texmf-dist/tex/latex/pgf/basiclayer/pgf.sty
INPUT /opt/texlive/2022/texmf-dist/tex/latex/pgf/basiclayer/pgf.sty
INPUT /opt/texlive/2022/texmf-dist/tex/latex/pgf/basiclayer/pgf.sty
INPUT /opt/texlive/2022/texmf-dist/tex/latex/pgf/basiclayer/pgf.sty
INPUT /opt/texlive/2022/texmf-dist/tex/latex/pgf/basiclayer/pgf.sty
INPUT /opt/texlive/2022/texmf-dist/tex/latex/pgf/utilities/pgfrcs.sty
INPUT /opt/texlive/2022/texmf-dist/tex/latex/pgf/utilities/pgfrcs.sty
INPUT /opt/texlive/2022/texmf-dist/tex/latex/pgf/utilities/pgfrcs.sty
INPUT /opt/texlive/2022/texmf-dist/tex/latex/pgf/utilities/pgfrcs.sty
INPUT /opt/texlive/2022/texmf-dist/tex/latex/pgf/utilities/pgfrcs.sty
INPUT /opt/texlive/2022/texmf-dist/tex/latex/pgf/utilities/pgfrcs.sty
INPUT /opt/texlive/2022/texmf-dist/tex/latex/pgf/utilities/pgfrcs.sty
INPUT /opt/texlive/2022/texmf-dist/tex/latex/pgf/utilities/pgfrcs.sty
INPUT /opt/texlive/2022/texmf-dist/tex/latex/pgf/utilities/pgfrcs.sty
INPUT /opt/texlive/2022/texmf-dist/tex/latex/pgf/utilities/pgfrcs.sty
INPUT /opt/texlive/2022/texmf-dist/tex/latex/pgf/utilities/pgfrcs.sty
INPUT /opt/texlive/2022/texmf-dist/tex/generic/pgf/utilities/pgfutil-common.tex
INPUT /opt/texlive/2022/texmf-dist/tex/generic/pgf/utilities/pgfutil-common-lists.tex
INPUT /opt/texlive/2022/texmf-dist/tex/generic/pgf/utilities/pgfutil-latex.def
INPUT /opt/texlive/2022/texmf-dist/tex/generic/pgf/utilities/pgfrcs.code.tex
INPUT /opt/texlive/2022/texmf-dist/tex/generic/pgf/utilities/pgfrcs.code.tex
INPUT /opt/texlive/2022/texmf-dist/tex/generic/pgf/utilities/pgfrcs.code.tex
INPUT /opt/texlive/2022/texmf-dist/tex/generic/pgf/utilities/pgfrcs.code.tex
INPUT /opt/texlive/2022/texmf-dist/tex/generic/pgf/pgf.revision.tex
INPUT /opt/texlive/2022/texmf-dist/tex/generic/pgf/pgf.revision.tex
INPUT /opt/texlive/2022/texmf-dist/tex/latex/pgf/basiclayer/pgfcore.sty
INPUT /opt/texlive/2022/texmf-dist/tex/latex/pgf/basiclayer/pgfcore.sty
INPUT /opt/texlive/2022/texmf-dist/tex/latex/pgf/basiclayer/pgfcore.sty
INPUT /opt/texlive/2022/texmf-dist/tex/latex/pgf/basiclayer/pgfcore.sty
INPUT /opt/texlive/2022/texmf-dist/tex/latex/pgf/basiclayer/pgfcore.sty
INPUT /opt/texlive/2022/texmf-dist/tex/latex/pgf/basiclayer/pgfcore.sty
INPUT /opt/texlive/2022/texmf-dist/tex/latex/pgf/basiclayer/pgfcore.sty
INPUT /opt/texlive/2022/texmf-dist/tex/latex/pgf/basiclayer/pgfcore.sty
INPUT /opt/texlive/2022/texmf-dist/tex/latex/pgf/basiclayer/pgfcore.sty
INPUT /opt/texlive/2022/texmf-dist/tex/latex/pgf/basiclayer/pgfcore.sty
INPUT /opt/texlive/2022/texmf-dist/tex/latex/pgf/basiclayer/pgfcore.sty
INPUT /opt/texlive/2022/texmf-dist/tex/latex/graphics/graphicx.sty
INPUT /opt/texlive/2022/texmf-dist/tex/latex/graphics/graphicx.sty
INPUT /opt/texlive/2022/texmf-dist/tex/latex/graphics/graphicx.sty
INPUT /opt/texlive/2022/texmf-dist/tex/latex/graphics/graphicx.sty
INPUT /opt/texlive/2022/texmf-dist/tex/latex/graphics/graphicx.sty
INPUT /opt/texlive/2022/texmf-dist/tex/latex/graphics/graphicx.sty
INPUT /opt/texlive/2022/texmf-dist/tex/latex/graphics/graphicx.sty
INPUT /opt/texlive/2022/texmf-dist/tex/latex/graphics/graphicx.sty
INPUT /opt/texlive/2022/texmf-dist/tex/latex/graphics/graphicx.sty
INPUT /opt/texlive/2022/texmf-dist/tex/latex/graphics/graphicx.sty
INPUT /opt/texlive/2022/texmf-dist/tex/latex/graphics/graphicx.sty
INPUT /opt/texlive/2022/texmf-dist/tex/latex/graphics/keyval.sty
INPUT /opt/texlive/2022/texmf-dist/tex/latex/graphics/graphics.sty
INPUT /opt/texlive/2022/texmf-dist/tex/latex/graphics/graphics.sty
INPUT /opt/texlive/2022/texmf-dist/tex/latex/graphics/graphics.sty
INPUT /opt/texlive/2022/texmf-dist/tex/latex/graphics/graphics.sty
INPUT /opt/texlive/2022/texmf-dist/tex/latex/graphics/graphics.sty
INPUT /opt/texlive/2022/texmf-dist/tex/latex/graphics/graphics.sty
INPUT /opt/texlive/2022/texmf-dist/tex/latex/graphics/graphics.sty
INPUT /opt/texlive/2022/texmf-dist/tex/latex/graphics/graphics.sty
INPUT /opt/texlive/2022/texmf-dist/tex/latex/graphics/graphics.sty
INPUT /opt/texlive/2022/texmf-dist/tex/latex/graphics/graphics.sty
INPUT /opt/texlive/2022/texmf-dist/tex/latex/graphics/graphics.sty
INPUT /opt/texlive/2022/texmf-dist/tex/latex/graphics/trig.sty
INPUT /opt/texlive/2022/texmf-dist/tex/latex/graphics/trig.sty
INPUT /opt/texlive/2022/texmf-dist/tex/latex/graphics/trig.sty
INPUT /opt/texlive/2022/texmf-dist/tex/latex/graphics/trig.sty
INPUT /opt/texlive/2022/texmf-dist/tex/latex/graphics/trig.sty
INPUT /opt/texlive/2022/texmf-dist/tex/latex/graphics/trig.sty
INPUT /opt/texlive/2022/texmf-dist/tex/latex/graphics/trig.sty
INPUT /opt/texlive/2022/texmf-dist/tex/latex/graphics/trig.sty
INPUT /opt/texlive/2022/texmf-dist/tex/latex/graphics/trig.sty
INPUT /opt/texlive/2022/texmf-dist/tex/latex/graphics/trig.sty
INPUT /opt/texlive/2022/texmf-dist/tex/latex/graphics/trig.sty
INPUT /opt/texlive/2022/texmf-dist/tex/latex/graphics-cfg/graphics.cfg
INPUT /opt/texlive/2022/texmf-dist/tex/latex/graphics-cfg/graphics.cfg
INPUT /opt/texlive/2022/texmf-dist/tex/latex/graphics-cfg/graphics.cfg
INPUT /opt/texlive/2022/texmf-dist/tex/latex/graphics-cfg/graphics.cfg
INPUT /opt/texlive/2022/texmf-dist/tex/latex/pgf/systemlayer/pgfsys.sty
INPUT /opt/texlive/2022/texmf-dist/tex/latex/pgf/systemlayer/pgfsys.sty
INPUT /opt/texlive/2022/texmf-dist/tex/latex/pgf/systemlayer/pgfsys.sty
INPUT /opt/texlive/2022/texmf-dist/tex/latex/pgf/systemlayer/pgfsys.sty
INPUT /opt/texlive/2022/texmf-dist/tex/latex/pgf/systemlayer/pgfsys.sty
INPUT /opt/texlive/2022/texmf-dist/tex/latex/pgf/systemlayer/pgfsys.sty
INPUT /opt/texlive/2022/texmf-dist/tex/latex/pgf/systemlayer/pgfsys.sty
INPUT /opt/texlive/2022/texmf-dist/tex/latex/pgf/systemlayer/pgfsys.sty
INPUT /opt/texlive/2022/texmf-dist/tex/latex/pgf/systemlayer/pgfsys.sty
INPUT /opt/texlive/2022/texmf-dist/tex/latex/pgf/systemlayer/pgfsys.sty
INPUT /opt/texlive/2022/texmf-dist/tex/latex/pgf/systemlayer/pgfsys.sty
INPUT /opt/texlive/2022/texmf-dist/tex/latex/pgf/utilities/pgfrcs.sty
INPUT /opt/texlive/2022/texmf-dist/tex/generic/pgf/systemlayer/pgfsys.code.tex
INPUT /opt/texlive/2022/texmf-dist/tex/generic/pgf/systemlayer/pgfsys.code.tex
INPUT /opt/texlive/2022/texmf-dist/tex/generic/pgf/systemlayer/pgfsys.code.tex
INPUT /opt/texlive/2022/texmf-dist/tex/generic/pgf/systemlayer/pgfsys.code.tex
INPUT /opt/texlive/2022/texmf-dist/tex/generic/pgf/utilities/pgfkeys.code.tex
INPUT /opt/texlive/2022/texmf-dist/tex/generic/pgf/utilities/pgfkeysfiltered.code.tex
INPUT /opt/texlive/2022/texmf-dist/tex/generic/pgf/systemlayer/pgf.cfg
INPUT /opt/texlive/2022/texmf-dist/tex/generic/pgf/systemlayer/pgfsys-pdftex.def
INPUT /opt/texlive/2022/texmf-dist/tex/generic/pgf/systemlayer/pgfsys-pdftex.def
INPUT /opt/texlive/2022/texmf-dist/tex/generic/pgf/systemlayer/pgfsys-common-pdf.def
INPUT /opt/texlive/2022/texmf-dist/tex/generic/pgf/systemlayer/pgfsyssoftpath.code.tex
INPUT /opt/texlive/2022/texmf-dist/tex/generic/pgf/systemlayer/pgfsyssoftpath.code.tex
INPUT /opt/texlive/2022/texmf-dist/tex/generic/pgf/systemlayer/pgfsyssoftpath.code.tex
INPUT /opt/texlive/2022/texmf-dist/tex/generic/pgf/systemlayer/pgfsyssoftpath.code.tex
INPUT /opt/texlive/2022/texmf-dist/tex/generic/pgf/systemlayer/pgfsysprotocol.code.tex
INPUT /opt/texlive/2022/texmf-dist/tex/generic/pgf/systemlayer/pgfsysprotocol.code.tex
INPUT /opt/texlive/2022/texmf-dist/tex/generic/pgf/systemlayer/pgfsysprotocol.code.tex
INPUT /opt/texlive/2022/texmf-dist/tex/generic/pgf/systemlayer/pgfsysprotocol.code.tex
INPUT /opt/texlive/2022/texmf-dist/tex/latex/graphics/keyval.sty
INPUT /opt/texlive/2022/texmf-dist/tex/latex/xcolor/xcolor.sty
INPUT /opt/texlive/2022/texmf-dist/tex/generic/pgf/basiclayer/pgfcore.code.tex
INPUT /opt/texlive/2022/texmf-dist/tex/generic/pgf/basiclayer/pgfcore.code.tex
INPUT /opt/texlive/2022/texmf-dist/tex/generic/pgf/basiclayer/pgfcore.code.tex
INPUT /opt/texlive/2022/texmf-dist/tex/generic/pgf/basiclayer/pgfcore.code.tex
INPUT /opt/texlive/2022/texmf-dist/tex/generic/pgf/math/pgfmath.code.tex
INPUT /opt/texlive/2022/texmf-dist/tex/generic/pgf/math/pgfmathcalc.code.tex
INPUT /opt/texlive/2022/texmf-dist/tex/generic/pgf/math/pgfmathutil.code.tex
INPUT /opt/texlive/2022/texmf-dist/tex/generic/pgf/math/pgfmathparser.code.tex
INPUT /opt/texlive/2022/texmf-dist/tex/generic/pgf/math/pgfmathfunctions.code.tex
INPUT /opt/texlive/2022/texmf-dist/tex/generic/pgf/math/pgfmathfunctions.basic.code.tex
INPUT /opt/texlive/2022/texmf-dist/tex/generic/pgf/math/pgfmathfunctions.trigonometric.code.tex
INPUT /opt/texlive/2022/texmf-dist/tex/generic/pgf/math/pgfmathfunctions.random.code.tex
INPUT /opt/texlive/2022/texmf-dist/tex/generic/pgf/math/pgfmathfunctions.comparison.code.tex
INPUT /opt/texlive/2022/texmf-dist/tex/generic/pgf/math/pgfmathfunctions.base.code.tex
INPUT /opt/texlive/2022/texmf-dist/tex/generic/pgf/math/pgfmathfunctions.round.code.tex
INPUT /opt/texlive/2022/texmf-dist/tex/generic/pgf/math/pgfmathfunctions.misc.code.tex
INPUT /opt/texlive/2022/texmf-dist/tex/generic/pgf/math/pgfmathfunctions.integerarithmetics.code.tex
INPUT /opt/texlive/2022/texmf-dist/tex/generic/pgf/math/pgfmathfloat.code.tex
INPUT /opt/texlive/2022/texmf-dist/tex/generic/pgf/math/pgfint.code.tex
INPUT /opt/texlive/2022/texmf-dist/tex/generic/pgf/basiclayer/pgfcorepoints.code.tex
INPUT /opt/texlive/2022/texmf-dist/tex/generic/pgf/basiclayer/pgfcorepathconstruct.code.tex
INPUT /opt/texlive/2022/texmf-dist/tex/generic/pgf/basiclayer/pgfcorepathusage.code.tex
INPUT /opt/texlive/2022/texmf-dist/tex/generic/pgf/basiclayer/pgfcorescopes.code.tex
INPUT /opt/texlive/2022/texmf-dist/tex/generic/pgf/basiclayer/pgfcoregraphicstate.code.tex
INPUT /opt/texlive/2022/texmf-dist/tex/generic/pgf/basiclayer/pgfcoretransformations.code.tex
INPUT /opt/texlive/2022/texmf-dist/tex/generic/pgf/basiclayer/pgfcorequick.code.tex
INPUT /opt/texlive/2022/texmf-dist/tex/generic/pgf/basiclayer/pgfcoreobjects.code.tex
INPUT /opt/texlive/2022/texmf-dist/tex/generic/pgf/basiclayer/pgfcorepathprocessing.code.tex
INPUT /opt/texlive/2022/texmf-dist/tex/generic/pgf/basiclayer/pgfcorearrows.code.tex
INPUT /opt/texlive/2022/texmf-dist/tex/generic/pgf/basiclayer/pgfcoreshade.code.tex
INPUT /opt/texlive/2022/texmf-dist/tex/generic/pgf/basiclayer/pgfcoreimage.code.tex
INPUT /opt/texlive/2022/texmf-dist/tex/generic/pgf/basiclayer/pgfcoreexternal.code.tex
INPUT /opt/texlive/2022/texmf-dist/tex/generic/pgf/basiclayer/pgfcorelayers.code.tex
INPUT /opt/texlive/2022/texmf-dist/tex/generic/pgf/basiclayer/pgfcoretransparency.code.tex
INPUT /opt/texlive/2022/texmf-dist/tex/generic/pgf/basiclayer/pgfcorepatterns.code.tex
INPUT /opt/texlive/2022/texmf-dist/tex/generic/pgf/basiclayer/pgfcorerdf.code.tex
INPUT /opt/texlive/2022/texmf-dist/tex/generic/pgf/modules/pgfmoduleshapes.code.tex
INPUT /opt/texlive/2022/texmf-dist/tex/generic/pgf/modules/pgfmoduleplot.code.tex
INPUT /opt/texlive/2022/texmf-dist/tex/latex/pgf/compatibility/pgfcomp-version-0-65.sty
INPUT /opt/texlive/2022/texmf-dist/tex/latex/pgf/compatibility/pgfcomp-version-0-65.sty
INPUT /opt/texlive/2022/texmf-dist/tex/latex/pgf/compatibility/pgfcomp-version-0-65.sty
INPUT /opt/texlive/2022/texmf-dist/tex/latex/pgf/compatibility/pgfcomp-version-0-65.sty
INPUT /opt/texlive/2022/texmf-dist/tex/latex/pgf/compatibility/pgfcomp-version-0-65.sty
INPUT /opt/texlive/2022/texmf-dist/tex/latex/pgf/compatibility/pgfcomp-version-0-65.sty
INPUT /opt/texlive/2022/texmf-dist/tex/latex/pgf/compatibility/pgfcomp-version-0-65.sty
INPUT /opt/texlive/2022/texmf-dist/tex/latex/pgf/compatibility/pgfcomp-version-0-65.sty
INPUT /opt/texlive/2022/texmf-dist/tex/latex/pgf/compatibility/pgfcomp-version-0-65.sty
INPUT /opt/texlive/2022/texmf-dist/tex/latex/pgf/compatibility/pgfcomp-version-0-65.sty
INPUT /opt/texlive/2022/texmf-dist/tex/latex/pgf/compatibility/pgfcomp-version-0-65.sty
INPUT /opt/texlive/2022/texmf-dist/tex/latex/pgf/utilities/pgfrcs.sty
INPUT /opt/texlive/2022/texmf-dist/tex/latex/pgf/compatibility/pgfcomp-version-1-18.sty
INPUT /opt/texlive/2022/texmf-dist/tex/latex/pgf/compatibility/pgfcomp-version-1-18.sty
INPUT /opt/texlive/2022/texmf-dist/tex/latex/pgf/compatibility/pgfcomp-version-1-18.sty
INPUT /opt/texlive/2022/texmf-dist/tex/latex/pgf/compatibility/pgfcomp-version-1-18.sty
INPUT /opt/texlive/2022/texmf-dist/tex/latex/pgf/compatibility/pgfcomp-version-1-18.sty
INPUT /opt/texlive/2022/texmf-dist/tex/latex/pgf/compatibility/pgfcomp-version-1-18.sty
INPUT /opt/texlive/2022/texmf-dist/tex/latex/pgf/compatibility/pgfcomp-version-1-18.sty
INPUT /opt/texlive/2022/texmf-dist/tex/latex/pgf/compatibility/pgfcomp-version-1-18.sty
INPUT /opt/texlive/2022/texmf-dist/tex/latex/pgf/compatibility/pgfcomp-version-1-18.sty
INPUT /opt/texlive/2022/texmf-dist/tex/latex/pgf/compatibility/pgfcomp-version-1-18.sty
INPUT /opt/texlive/2022/texmf-dist/tex/latex/pgf/compatibility/pgfcomp-version-1-18.sty
INPUT /opt/texlive/2022/texmf-dist/tex/latex/pgf/utilities/pgfrcs.sty
INPUT /opt/texlive/2022/texmf-dist/tex/latex/pgf/utilities/pgffor.sty
INPUT /opt/texlive/2022/texmf-dist/tex/latex/pgf/utilities/pgffor.sty
INPUT /opt/texlive/2022/texmf-dist/tex/latex/pgf/utilities/pgffor.sty
INPUT /opt/texlive/2022/texmf-dist/tex/latex/pgf/utilities/pgffor.sty
INPUT /opt/texlive/2022/texmf-dist/tex/latex/pgf/utilities/pgffor.sty
INPUT /opt/texlive/2022/texmf-dist/tex/latex/pgf/utilities/pgffor.sty
INPUT /opt/texlive/2022/texmf-dist/tex/latex/pgf/utilities/pgffor.sty
INPUT /opt/texlive/2022/texmf-dist/tex/latex/pgf/utilities/pgffor.sty
INPUT /opt/texlive/2022/texmf-dist/tex/latex/pgf/utilities/pgffor.sty
INPUT /opt/texlive/2022/texmf-dist/tex/latex/pgf/utilities/pgffor.sty
INPUT /opt/texlive/2022/texmf-dist/tex/latex/pgf/utilities/pgffor.sty
INPUT /opt/texlive/2022/texmf-dist/tex/latex/pgf/utilities/pgfrcs.sty
INPUT /opt/texlive/2022/texmf-dist/tex/latex/pgf/utilities/pgfkeys.sty
INPUT /opt/texlive/2022/texmf-dist/tex/latex/pgf/utilities/pgfkeys.sty
INPUT /opt/texlive/2022/texmf-dist/tex/latex/pgf/utilities/pgfkeys.sty
INPUT /opt/texlive/2022/texmf-dist/tex/latex/pgf/utilities/pgfkeys.sty
INPUT /opt/texlive/2022/texmf-dist/tex/latex/pgf/utilities/pgfkeys.sty
INPUT /opt/texlive/2022/texmf-dist/tex/latex/pgf/utilities/pgfkeys.sty
INPUT /opt/texlive/2022/texmf-dist/tex/latex/pgf/utilities/pgfkeys.sty
INPUT /opt/texlive/2022/texmf-dist/tex/latex/pgf/utilities/pgfkeys.sty
INPUT /opt/texlive/2022/texmf-dist/tex/latex/pgf/utilities/pgfkeys.sty
INPUT /opt/texlive/2022/texmf-dist/tex/latex/pgf/utilities/pgfkeys.sty
INPUT /opt/texlive/2022/texmf-dist/tex/latex/pgf/utilities/pgfkeys.sty
INPUT /opt/texlive/2022/texmf-dist/tex/generic/pgf/utilities/pgfkeys.code.tex
INPUT /opt/texlive/2022/texmf-dist/tex/generic/pgf/utilities/pgfkeys.code.tex
INPUT /opt/texlive/2022/texmf-dist/tex/generic/pgf/utilities/pgfkeys.code.tex
INPUT /opt/texlive/2022/texmf-dist/tex/generic/pgf/utilities/pgfkeys.code.tex
INPUT /opt/texlive/2022/texmf-dist/tex/latex/pgf/math/pgfmath.sty
INPUT /opt/texlive/2022/texmf-dist/tex/latex/pgf/math/pgfmath.sty
INPUT /opt/texlive/2022/texmf-dist/tex/latex/pgf/math/pgfmath.sty
INPUT /opt/texlive/2022/texmf-dist/tex/latex/pgf/math/pgfmath.sty
INPUT /opt/texlive/2022/texmf-dist/tex/latex/pgf/math/pgfmath.sty
INPUT /opt/texlive/2022/texmf-dist/tex/latex/pgf/math/pgfmath.sty
INPUT /opt/texlive/2022/texmf-dist/tex/latex/pgf/math/pgfmath.sty
INPUT /opt/texlive/2022/texmf-dist/tex/latex/pgf/math/pgfmath.sty
INPUT /opt/texlive/2022/texmf-dist/tex/latex/pgf/math/pgfmath.sty
INPUT /opt/texlive/2022/texmf-dist/tex/latex/pgf/math/pgfmath.sty
INPUT /opt/texlive/2022/texmf-dist/tex/latex/pgf/math/pgfmath.sty
INPUT /opt/texlive/2022/texmf-dist/tex/latex/pgf/utilities/pgfrcs.sty
INPUT /opt/texlive/2022/texmf-dist/tex/latex/pgf/utilities/pgfkeys.sty
INPUT /opt/texlive/2022/texmf-dist/tex/generic/pgf/math/pgfmath.code.tex
INPUT /opt/texlive/2022/texmf-dist/tex/generic/pgf/math/pgfmath.code.tex
INPUT /opt/texlive/2022/texmf-dist/tex/generic/pgf/math/pgfmath.code.tex
INPUT /opt/texlive/2022/texmf-dist/tex/generic/pgf/math/pgfmath.code.tex
INPUT /opt/texlive/2022/texmf-dist/tex/generic/pgf/utilities/pgffor.code.tex
INPUT /opt/texlive/2022/texmf-dist/tex/generic/pgf/utilities/pgffor.code.tex
INPUT /opt/texlive/2022/texmf-dist/tex/generic/pgf/utilities/pgffor.code.tex
INPUT /opt/texlive/2022/texmf-dist/tex/generic/pgf/utilities/pgffor.code.tex
INPUT /opt/texlive/2022/texmf-dist/tex/generic/pgf/math/pgfmath.code.tex
INPUT /opt/texlive/2022/texmf-dist/tex/generic/pgf/frontendlayer/tikz/tikz.code.tex
INPUT /opt/texlive/2022/texmf-dist/tex/generic/pgf/frontendlayer/tikz/tikz.code.tex
INPUT /opt/texlive/2022/texmf-dist/tex/generic/pgf/frontendlayer/tikz/tikz.code.tex
INPUT /opt/texlive/2022/texmf-dist/tex/generic/pgf/frontendlayer/tikz/tikz.code.tex
INPUT /opt/texlive/2022/texmf-dist/tex/generic/pgf/libraries/pgflibraryplothandlers.code.tex
INPUT /opt/texlive/2022/texmf-dist/tex/generic/pgf/libraries/pgflibraryplothandlers.code.tex
INPUT /opt/texlive/2022/texmf-dist/tex/generic/pgf/modules/pgfmodulematrix.code.tex
INPUT /opt/texlive/2022/texmf-dist/tex/generic/pgf/frontendlayer/tikz/libraries/tikzlibrarytopaths.code.tex
INPUT /opt/texlive/2022/texmf-dist/tex/generic/pgf/frontendlayer/tikz/libraries/tikzlibrarytopaths.code.tex
INPUT /opt/texlive/2022/texmf-dist/tex/generic/pgf/frontendlayer/tikz/libraries/tikzlibraryarrows.code.tex
INPUT /opt/texlive/2022/texmf-dist/tex/generic/pgf/frontendlayer/tikz/libraries/tikzlibraryarrows.code.tex
INPUT /opt/texlive/2022/texmf-dist/tex/generic/pgf/libraries/pgflibraryarrows.code.tex
INPUT /opt/texlive/2022/texmf-dist/tex/generic/pgf/libraries/pgflibraryarrows.code.tex
INPUT /opt/texlive/2022/texmf-dist/tex/latex/tcolorbox/tcolorbox.sty
INPUT /opt/texlive/2022/texmf-dist/tex/latex/tcolorbox/tcolorbox.sty
INPUT /opt/texlive/2022/texmf-dist/tex/latex/tcolorbox/tcolorbox.sty
INPUT /opt/texlive/2022/texmf-dist/tex/latex/tcolorbox/tcolorbox.sty
INPUT /opt/texlive/2022/texmf-dist/tex/latex/tcolorbox/tcolorbox.sty
INPUT /opt/texlive/2022/texmf-dist/tex/latex/tcolorbox/tcolorbox.sty
INPUT /opt/texlive/2022/texmf-dist/tex/latex/tcolorbox/tcolorbox.sty
INPUT /opt/texlive/2022/texmf-dist/tex/latex/tcolorbox/tcolorbox.sty
INPUT /opt/texlive/2022/texmf-dist/tex/latex/tcolorbox/tcolorbox.sty
INPUT /opt/texlive/2022/texmf-dist/tex/latex/tcolorbox/tcolorbox.sty
INPUT /opt/texlive/2022/texmf-dist/tex/latex/tcolorbox/tcolorbox.sty
INPUT /opt/texlive/2022/texmf-dist/tex/latex/pgf/basiclayer/pgf.sty
INPUT /opt/texlive/2022/texmf-dist/tex/latex/tools/verbatim.sty
INPUT /opt/texlive/2022/texmf-dist/tex/latex/tools/verbatim.sty
INPUT /opt/texlive/2022/texmf-dist/tex/latex/tools/verbatim.sty
INPUT /opt/texlive/2022/texmf-dist/tex/latex/tools/verbatim.sty
INPUT /opt/texlive/2022/texmf-dist/tex/latex/tools/verbatim.sty
INPUT /opt/texlive/2022/texmf-dist/tex/latex/tools/verbatim.sty
INPUT /opt/texlive/2022/texmf-dist/tex/latex/tools/verbatim.sty
INPUT /opt/texlive/2022/texmf-dist/tex/latex/tools/verbatim.sty
INPUT /opt/texlive/2022/texmf-dist/tex/latex/tools/verbatim.sty
INPUT /opt/texlive/2022/texmf-dist/tex/latex/tools/verbatim.sty
INPUT /opt/texlive/2022/texmf-dist/tex/latex/tools/verbatim.sty
INPUT /opt/texlive/2022/texmf-dist/tex/latex/environ/environ.sty
INPUT /opt/texlive/2022/texmf-dist/tex/latex/environ/environ.sty
INPUT /opt/texlive/2022/texmf-dist/tex/latex/environ/environ.sty
INPUT /opt/texlive/2022/texmf-dist/tex/latex/environ/environ.sty
INPUT /opt/texlive/2022/texmf-dist/tex/latex/environ/environ.sty
INPUT /opt/texlive/2022/texmf-dist/tex/latex/environ/environ.sty
INPUT /opt/texlive/2022/texmf-dist/tex/latex/environ/environ.sty
INPUT /opt/texlive/2022/texmf-dist/tex/latex/environ/environ.sty
INPUT /opt/texlive/2022/texmf-dist/tex/latex/environ/environ.sty
INPUT /opt/texlive/2022/texmf-dist/tex/latex/environ/environ.sty
INPUT /opt/texlive/2022/texmf-dist/tex/latex/environ/environ.sty
INPUT /opt/texlive/2022/texmf-dist/tex/latex/trimspaces/trimspaces.sty
INPUT /opt/texlive/2022/texmf-dist/tex/latex/trimspaces/trimspaces.sty
INPUT /opt/texlive/2022/texmf-dist/tex/latex/trimspaces/trimspaces.sty
INPUT /opt/texlive/2022/texmf-dist/tex/latex/trimspaces/trimspaces.sty
INPUT /opt/texlive/2022/texmf-dist/tex/latex/trimspaces/trimspaces.sty
INPUT /opt/texlive/2022/texmf-dist/tex/latex/trimspaces/trimspaces.sty
INPUT /opt/texlive/2022/texmf-dist/tex/latex/trimspaces/trimspaces.sty
INPUT /opt/texlive/2022/texmf-dist/tex/latex/trimspaces/trimspaces.sty
INPUT /opt/texlive/2022/texmf-dist/tex/latex/trimspaces/trimspaces.sty
INPUT /opt/texlive/2022/texmf-dist/tex/latex/trimspaces/trimspaces.sty
INPUT /opt/texlive/2022/texmf-dist/tex/latex/trimspaces/trimspaces.sty
INPUT /opt/texlive/2022/texmf-dist/tex/latex/etoolbox/etoolbox.sty
INPUT /opt/texlive/2022/texmf-dist/tex/latex/etoolbox/etoolbox.sty
INPUT /opt/texlive/2022/texmf-dist/tex/latex/etoolbox/etoolbox.sty
INPUT /opt/texlive/2022/texmf-dist/tex/latex/etoolbox/etoolbox.sty
INPUT /opt/texlive/2022/texmf-dist/tex/latex/etoolbox/etoolbox.sty
INPUT /opt/texlive/2022/texmf-dist/tex/latex/etoolbox/etoolbox.sty
INPUT /opt/texlive/2022/texmf-dist/tex/latex/etoolbox/etoolbox.sty
INPUT /opt/texlive/2022/texmf-dist/tex/latex/etoolbox/etoolbox.sty
INPUT /opt/texlive/2022/texmf-dist/tex/latex/etoolbox/etoolbox.sty
INPUT /opt/texlive/2022/texmf-dist/tex/latex/etoolbox/etoolbox.sty
INPUT /opt/texlive/2022/texmf-dist/tex/latex/etoolbox/etoolbox.sty
INPUT /opt/texlive/2022/texmf-dist/tex/latex/tcolorbox/tcbskins.code.tex
INPUT /opt/texlive/2022/texmf-dist/tex/latex/pgf/frontendlayer/tikz.sty
INPUT /opt/texlive/2022/texmf-dist/tex/latex/tcolorbox/tcbskinsjigsaw.code.tex
INPUT /opt/texlive/2022/texmf-dist/tex/latex/enumitem/enumitem.sty
INPUT /opt/texlive/2022/texmf-dist/tex/latex/enumitem/enumitem.sty
INPUT /opt/texlive/2022/texmf-dist/tex/latex/enumitem/enumitem.sty
INPUT /opt/texlive/2022/texmf-dist/tex/latex/enumitem/enumitem.sty
INPUT /opt/texlive/2022/texmf-dist/tex/latex/enumitem/enumitem.sty
INPUT /opt/texlive/2022/texmf-dist/tex/latex/enumitem/enumitem.sty
INPUT /opt/texlive/2022/texmf-dist/tex/latex/enumitem/enumitem.sty
INPUT /opt/texlive/2022/texmf-dist/tex/latex/enumitem/enumitem.sty
INPUT /opt/texlive/2022/texmf-dist/tex/latex/enumitem/enumitem.sty
INPUT /opt/texlive/2022/texmf-dist/tex/latex/enumitem/enumitem.sty
INPUT /opt/texlive/2022/texmf-dist/tex/latex/enumitem/enumitem.sty
INPUT /opt/texlive/2022/texmf-dist/tex/latex/graphics/graphicx.sty
INPUT /opt/texlive/2022/texmf-dist/tex/latex/etoolbox/etoolbox.sty
INPUT /opt/texlive/2022/texmf-dist/tex/latex/dashrule/dashrule.sty
INPUT /opt/texlive/2022/texmf-dist/tex/latex/dashrule/dashrule.sty
INPUT /opt/texlive/2022/texmf-dist/tex/latex/dashrule/dashrule.sty
INPUT /opt/texlive/2022/texmf-dist/tex/latex/dashrule/dashrule.sty
INPUT /opt/texlive/2022/texmf-dist/tex/latex/dashrule/dashrule.sty
INPUT /opt/texlive/2022/texmf-dist/tex/latex/dashrule/dashrule.sty
INPUT /opt/texlive/2022/texmf-dist/tex/latex/dashrule/dashrule.sty
INPUT /opt/texlive/2022/texmf-dist/tex/latex/dashrule/dashrule.sty
INPUT /opt/texlive/2022/texmf-dist/tex/latex/dashrule/dashrule.sty
INPUT /opt/texlive/2022/texmf-dist/tex/latex/dashrule/dashrule.sty
INPUT /opt/texlive/2022/texmf-dist/tex/latex/dashrule/dashrule.sty
INPUT /opt/texlive/2022/texmf-dist/tex/latex/ifmtarg/ifmtarg.sty
INPUT /opt/texlive/2022/texmf-dist/tex/latex/ifmtarg/ifmtarg.sty
INPUT /opt/texlive/2022/texmf-dist/tex/latex/ifmtarg/ifmtarg.sty
INPUT /opt/texlive/2022/texmf-dist/tex/latex/ifmtarg/ifmtarg.sty
INPUT /opt/texlive/2022/texmf-dist/tex/latex/ifmtarg/ifmtarg.sty
INPUT /opt/texlive/2022/texmf-dist/tex/latex/ifmtarg/ifmtarg.sty
INPUT /opt/texlive/2022/texmf-dist/tex/latex/ifmtarg/ifmtarg.sty
INPUT /opt/texlive/2022/texmf-dist/tex/latex/ifmtarg/ifmtarg.sty
INPUT /opt/texlive/2022/texmf-dist/tex/latex/ifmtarg/ifmtarg.sty
INPUT /opt/texlive/2022/texmf-dist/tex/latex/ifmtarg/ifmtarg.sty
INPUT /opt/texlive/2022/texmf-dist/tex/latex/ifmtarg/ifmtarg.sty
INPUT /opt/texlive/2022/texmf-dist/tex/latex/multirow/multirow.sty
INPUT /opt/texlive/2022/texmf-dist/tex/latex/multirow/multirow.sty
INPUT /opt/texlive/2022/texmf-dist/tex/latex/multirow/multirow.sty
INPUT /opt/texlive/2022/texmf-dist/tex/latex/multirow/multirow.sty
INPUT /opt/texlive/2022/texmf-dist/tex/latex/multirow/multirow.sty
INPUT /opt/texlive/2022/texmf-dist/tex/latex/multirow/multirow.sty
INPUT /opt/texlive/2022/texmf-dist/tex/latex/multirow/multirow.sty
INPUT /opt/texlive/2022/texmf-dist/tex/latex/multirow/multirow.sty
INPUT /opt/texlive/2022/texmf-dist/tex/latex/multirow/multirow.sty
INPUT /opt/texlive/2022/texmf-dist/tex/latex/multirow/multirow.sty
INPUT /opt/texlive/2022/texmf-dist/tex/latex/multirow/multirow.sty
INPUT /opt/texlive/2022/texmf-dist/tex/latex/tools/tabularx.sty
INPUT /opt/texlive/2022/texmf-dist/tex/latex/tools/tabularx.sty
INPUT /opt/texlive/2022/texmf-dist/tex/latex/tools/tabularx.sty
INPUT /opt/texlive/2022/texmf-dist/tex/latex/tools/tabularx.sty
INPUT /opt/texlive/2022/texmf-dist/tex/latex/tools/tabularx.sty
INPUT /opt/texlive/2022/texmf-dist/tex/latex/tools/tabularx.sty
INPUT /opt/texlive/2022/texmf-dist/tex/latex/tools/tabularx.sty
INPUT /opt/texlive/2022/texmf-dist/tex/latex/tools/tabularx.sty
INPUT /opt/texlive/2022/texmf-dist/tex/latex/tools/tabularx.sty
INPUT /opt/texlive/2022/texmf-dist/tex/latex/tools/tabularx.sty
INPUT /opt/texlive/2022/texmf-dist/tex/latex/tools/tabularx.sty
INPUT /opt/texlive/2022/texmf-dist/tex/latex/tools/array.sty
INPUT /opt/texlive/2022/texmf-dist/tex/latex/tools/array.sty
INPUT /opt/texlive/2022/texmf-dist/tex/latex/tools/array.sty
INPUT /opt/texlive/2022/texmf-dist/tex/latex/tools/array.sty
INPUT /opt/texlive/2022/texmf-dist/tex/latex/tools/array.sty
INPUT /opt/texlive/2022/texmf-dist/tex/latex/tools/array.sty
INPUT /opt/texlive/2022/texmf-dist/tex/latex/tools/array.sty
INPUT /opt/texlive/2022/texmf-dist/tex/latex/tools/array.sty
INPUT /opt/texlive/2022/texmf-dist/tex/latex/tools/array.sty
INPUT /opt/texlive/2022/texmf-dist/tex/latex/tools/array.sty
INPUT /opt/texlive/2022/texmf-dist/tex/latex/tools/array.sty
INPUT /opt/texlive/2022/texmf-dist/tex/latex/changepage/changepage.sty
INPUT /opt/texlive/2022/texmf-dist/tex/latex/changepage/changepage.sty
INPUT /opt/texlive/2022/texmf-dist/tex/latex/changepage/changepage.sty
INPUT /opt/texlive/2022/texmf-dist/tex/latex/changepage/changepage.sty
INPUT /opt/texlive/2022/texmf-dist/tex/latex/changepage/changepage.sty
INPUT /opt/texlive/2022/texmf-dist/tex/latex/changepage/changepage.sty
INPUT /opt/texlive/2022/texmf-dist/tex/latex/changepage/changepage.sty
INPUT /opt/texlive/2022/texmf-dist/tex/latex/changepage/changepage.sty
INPUT /opt/texlive/2022/texmf-dist/tex/latex/changepage/changepage.sty
INPUT /opt/texlive/2022/texmf-dist/tex/latex/changepage/changepage.sty
INPUT /opt/texlive/2022/texmf-dist/tex/latex/changepage/changepage.sty
INPUT /opt/texlive/2022/texmf-dist/tex/latex/biblatex/biblatex.sty
INPUT /opt/texlive/2022/texmf-dist/tex/latex/biblatex/biblatex.sty
INPUT /opt/texlive/2022/texmf-dist/tex/latex/biblatex/biblatex.sty
INPUT /opt/texlive/2022/texmf-dist/tex/latex/biblatex/biblatex.sty
INPUT /opt/texlive/2022/texmf-dist/tex/latex/biblatex/biblatex.sty
INPUT /opt/texlive/2022/texmf-dist/tex/latex/biblatex/biblatex.sty
INPUT /opt/texlive/2022/texmf-dist/tex/latex/biblatex/biblatex.sty
INPUT /opt/texlive/2022/texmf-dist/tex/latex/biblatex/biblatex.sty
INPUT /opt/texlive/2022/texmf-dist/tex/latex/biblatex/biblatex.sty
INPUT /opt/texlive/2022/texmf-dist/tex/latex/biblatex/biblatex.sty
INPUT /opt/texlive/2022/texmf-dist/tex/latex/biblatex/biblatex.sty
INPUT /opt/texlive/2022/texmf-dist/tex/generic/pdftexcmds/pdftexcmds.sty
INPUT /opt/texlive/2022/texmf-dist/tex/generic/pdftexcmds/pdftexcmds.sty
INPUT /opt/texlive/2022/texmf-dist/tex/generic/pdftexcmds/pdftexcmds.sty
INPUT /opt/texlive/2022/texmf-dist/tex/generic/pdftexcmds/pdftexcmds.sty
INPUT /opt/texlive/2022/texmf-dist/tex/generic/pdftexcmds/pdftexcmds.sty
INPUT /opt/texlive/2022/texmf-dist/tex/generic/pdftexcmds/pdftexcmds.sty
INPUT /opt/texlive/2022/texmf-dist/tex/generic/pdftexcmds/pdftexcmds.sty
INPUT /opt/texlive/2022/texmf-dist/tex/generic/pdftexcmds/pdftexcmds.sty
INPUT /opt/texlive/2022/texmf-dist/tex/generic/pdftexcmds/pdftexcmds.sty
INPUT /opt/texlive/2022/texmf-dist/tex/generic/pdftexcmds/pdftexcmds.sty
INPUT /opt/texlive/2022/texmf-dist/tex/generic/pdftexcmds/pdftexcmds.sty
INPUT /opt/texlive/2022/texmf-dist/tex/generic/infwarerr/infwarerr.sty
INPUT /opt/texlive/2022/texmf-dist/tex/generic/infwarerr/infwarerr.sty
INPUT /opt/texlive/2022/texmf-dist/tex/generic/infwarerr/infwarerr.sty
INPUT /opt/texlive/2022/texmf-dist/tex/generic/infwarerr/infwarerr.sty
INPUT /opt/texlive/2022/texmf-dist/tex/generic/infwarerr/infwarerr.sty
INPUT /opt/texlive/2022/texmf-dist/tex/generic/infwarerr/infwarerr.sty
INPUT /opt/texlive/2022/texmf-dist/tex/generic/infwarerr/infwarerr.sty
INPUT /opt/texlive/2022/texmf-dist/tex/generic/infwarerr/infwarerr.sty
INPUT /opt/texlive/2022/texmf-dist/tex/generic/infwarerr/infwarerr.sty
INPUT /opt/texlive/2022/texmf-dist/tex/generic/infwarerr/infwarerr.sty
INPUT /opt/texlive/2022/texmf-dist/tex/generic/infwarerr/infwarerr.sty
INPUT /opt/texlive/2022/texmf-dist/tex/generic/iftex/iftex.sty
INPUT /opt/texlive/2022/texmf-dist/tex/generic/ltxcmds/ltxcmds.sty
INPUT /opt/texlive/2022/texmf-dist/tex/generic/ltxcmds/ltxcmds.sty
INPUT /opt/texlive/2022/texmf-dist/tex/generic/ltxcmds/ltxcmds.sty
INPUT /opt/texlive/2022/texmf-dist/tex/generic/ltxcmds/ltxcmds.sty
INPUT /opt/texlive/2022/texmf-dist/tex/generic/ltxcmds/ltxcmds.sty
INPUT /opt/texlive/2022/texmf-dist/tex/generic/ltxcmds/ltxcmds.sty
INPUT /opt/texlive/2022/texmf-dist/tex/generic/ltxcmds/ltxcmds.sty
INPUT /opt/texlive/2022/texmf-dist/tex/generic/ltxcmds/ltxcmds.sty
INPUT /opt/texlive/2022/texmf-dist/tex/generic/ltxcmds/ltxcmds.sty
INPUT /opt/texlive/2022/texmf-dist/tex/generic/ltxcmds/ltxcmds.sty
INPUT /opt/texlive/2022/texmf-dist/tex/generic/ltxcmds/ltxcmds.sty
INPUT /opt/texlive/2022/texmf-dist/tex/latex/etoolbox/etoolbox.sty
INPUT /opt/texlive/2022/texmf-dist/tex/latex/graphics/keyval.sty
INPUT /opt/texlive/2022/texmf-dist/tex/latex/kvoptions/kvoptions.sty
INPUT /opt/texlive/2022/texmf-dist/tex/latex/kvoptions/kvoptions.sty
INPUT /opt/texlive/2022/texmf-dist/tex/latex/kvoptions/kvoptions.sty
INPUT /opt/texlive/2022/texmf-dist/tex/latex/kvoptions/kvoptions.sty
INPUT /opt/texlive/2022/texmf-dist/tex/latex/kvoptions/kvoptions.sty
INPUT /opt/texlive/2022/texmf-dist/tex/latex/kvoptions/kvoptions.sty
INPUT /opt/texlive/2022/texmf-dist/tex/latex/kvoptions/kvoptions.sty
INPUT /opt/texlive/2022/texmf-dist/tex/latex/kvoptions/kvoptions.sty
INPUT /opt/texlive/2022/texmf-dist/tex/latex/kvoptions/kvoptions.sty
INPUT /opt/texlive/2022/texmf-dist/tex/latex/kvoptions/kvoptions.sty
INPUT /opt/texlive/2022/texmf-dist/tex/latex/kvoptions/kvoptions.sty
INPUT /opt/texlive/2022/texmf-dist/tex/generic/ltxcmds/ltxcmds.sty
INPUT /opt/texlive/2022/texmf-dist/tex/generic/kvsetkeys/kvsetkeys.sty
INPUT /opt/texlive/2022/texmf-dist/tex/generic/kvsetkeys/kvsetkeys.sty
INPUT /opt/texlive/2022/texmf-dist/tex/generic/kvsetkeys/kvsetkeys.sty
INPUT /opt/texlive/2022/texmf-dist/tex/generic/kvsetkeys/kvsetkeys.sty
INPUT /opt/texlive/2022/texmf-dist/tex/generic/kvsetkeys/kvsetkeys.sty
INPUT /opt/texlive/2022/texmf-dist/tex/generic/kvsetkeys/kvsetkeys.sty
INPUT /opt/texlive/2022/texmf-dist/tex/generic/kvsetkeys/kvsetkeys.sty
INPUT /opt/texlive/2022/texmf-dist/tex/generic/kvsetkeys/kvsetkeys.sty
INPUT /opt/texlive/2022/texmf-dist/tex/generic/kvsetkeys/kvsetkeys.sty
INPUT /opt/texlive/2022/texmf-dist/tex/generic/kvsetkeys/kvsetkeys.sty
INPUT /opt/texlive/2022/texmf-dist/tex/generic/kvsetkeys/kvsetkeys.sty
INPUT /opt/texlive/2022/texmf-dist/tex/latex/logreq/logreq.sty
INPUT /opt/texlive/2022/texmf-dist/tex/latex/logreq/logreq.sty
INPUT /opt/texlive/2022/texmf-dist/tex/latex/logreq/logreq.sty
INPUT /opt/texlive/2022/texmf-dist/tex/latex/logreq/logreq.sty
INPUT /opt/texlive/2022/texmf-dist/tex/latex/logreq/logreq.sty
INPUT /opt/texlive/2022/texmf-dist/tex/latex/logreq/logreq.sty
INPUT /opt/texlive/2022/texmf-dist/tex/latex/logreq/logreq.sty
INPUT /opt/texlive/2022/texmf-dist/tex/latex/logreq/logreq.sty
INPUT /opt/texlive/2022/texmf-dist/tex/latex/logreq/logreq.sty
INPUT /opt/texlive/2022/texmf-dist/tex/latex/logreq/logreq.sty
INPUT /opt/texlive/2022/texmf-dist/tex/latex/logreq/logreq.sty
INPUT /opt/texlive/2022/texmf-dist/tex/latex/etoolbox/etoolbox.sty
INPUT /opt/texlive/2022/texmf-dist/tex/latex/graphics/keyval.sty
INPUT /opt/texlive/2022/texmf-dist/tex/latex/logreq/logreq.def
INPUT /opt/texlive/2022/texmf-dist/tex/latex/logreq/logreq.def
INPUT /opt/texlive/2022/texmf-dist/tex/latex/logreq/logreq.def
INPUT /opt/texlive/2022/texmf-dist/tex/latex/logreq/logreq.def
INPUT /opt/texlive/2022/texmf-dist/tex/latex/base/ifthen.sty
INPUT /opt/texlive/2022/texmf-dist/tex/latex/base/ifthen.sty
INPUT /opt/texlive/2022/texmf-dist/tex/latex/base/ifthen.sty
INPUT /opt/texlive/2022/texmf-dist/tex/latex/base/ifthen.sty
INPUT /opt/texlive/2022/texmf-dist/tex/latex/base/ifthen.sty
INPUT /opt/texlive/2022/texmf-dist/tex/latex/base/ifthen.sty
INPUT /opt/texlive/2022/texmf-dist/tex/latex/base/ifthen.sty
INPUT /opt/texlive/2022/texmf-dist/tex/latex/base/ifthen.sty
INPUT /opt/texlive/2022/texmf-dist/tex/latex/base/ifthen.sty
INPUT /opt/texlive/2022/texmf-dist/tex/latex/base/ifthen.sty
INPUT /opt/texlive/2022/texmf-dist/tex/latex/base/ifthen.sty
INPUT /opt/texlive/2022/texmf-dist/tex/latex/url/url.sty
INPUT /opt/texlive/2022/texmf-dist/tex/latex/url/url.sty
INPUT /opt/texlive/2022/texmf-dist/tex/latex/url/url.sty
INPUT /opt/texlive/2022/texmf-dist/tex/latex/url/url.sty
INPUT /opt/texlive/2022/texmf-dist/tex/latex/url/url.sty
INPUT /opt/texlive/2022/texmf-dist/tex/latex/url/url.sty
INPUT /opt/texlive/2022/texmf-dist/tex/latex/url/url.sty
INPUT /opt/texlive/2022/texmf-dist/tex/latex/url/url.sty
INPUT /opt/texlive/2022/texmf-dist/tex/latex/url/url.sty
INPUT /opt/texlive/2022/texmf-dist/tex/latex/url/url.sty
INPUT /opt/texlive/2022/texmf-dist/tex/latex/url/url.sty
INPUT /opt/texlive/2022/texmf-dist/tex/latex/biblatex/blx-dm.def
INPUT /opt/texlive/2022/texmf-dist/tex/latex/biblatex/blx-dm.def
INPUT /opt/texlive/2022/texmf-dist/tex/latex/biblatex/blx-dm.def
INPUT /opt/texlive/2022/texmf-dist/tex/latex/biblatex/blx-compat.def
INPUT /opt/texlive/2022/texmf-dist/tex/latex/biblatex/blx-compat.def
INPUT /opt/texlive/2022/texmf-dist/tex/latex/biblatex/blx-compat.def
INPUT /opt/texlive/2022/texmf-dist/tex/latex/biblatex/biblatex.def
INPUT /opt/texlive/2022/texmf-dist/tex/latex/biblatex/biblatex.def
INPUT /opt/texlive/2022/texmf-dist/tex/latex/biblatex/biblatex.def
INPUT /opt/texlive/2022/texmf-dist/tex/latex/biblatex/bbx/authoryear.bbx
INPUT /opt/texlive/2022/texmf-dist/tex/latex/biblatex/bbx/authoryear.bbx
INPUT /opt/texlive/2022/texmf-dist/tex/latex/biblatex/bbx/authoryear.bbx
INPUT /opt/texlive/2022/texmf-dist/tex/latex/biblatex/bbx/standard.bbx
INPUT /opt/texlive/2022/texmf-dist/tex/latex/biblatex/bbx/standard.bbx
INPUT /opt/texlive/2022/texmf-dist/tex/latex/biblatex/bbx/standard.bbx
INPUT /opt/texlive/2022/texmf-dist/tex/latex/biblatex/cbx/authoryear.cbx
INPUT /opt/texlive/2022/texmf-dist/tex/latex/biblatex/cbx/authoryear.cbx
INPUT /opt/texlive/2022/texmf-dist/tex/latex/biblatex/cbx/authoryear.cbx
INPUT /opt/texlive/2022/texmf-dist/tex/latex/biblatex/biblatex.cfg
INPUT /opt/texlive/2022/texmf-dist/tex/latex/biblatex/biblatex.cfg
INPUT /opt/texlive/2022/texmf-dist/tex/latex/biblatex/biblatex.cfg
INPUT /opt/texlive/2022/texmf-dist/tex/latex/l3kernel/expl3.sty
INPUT /opt/texlive/2022/texmf-dist/tex/latex/l3kernel/expl3.sty
INPUT /opt/texlive/2022/texmf-dist/tex/latex/l3kernel/expl3.sty
INPUT /opt/texlive/2022/texmf-dist/tex/latex/l3kernel/expl3.sty
INPUT /opt/texlive/2022/texmf-dist/tex/latex/l3kernel/expl3.sty
INPUT /opt/texlive/2022/texmf-dist/tex/latex/l3kernel/expl3.sty
INPUT /opt/texlive/2022/texmf-dist/tex/latex/l3kernel/expl3.sty
INPUT /opt/texlive/2022/texmf-dist/tex/latex/l3kernel/expl3.sty
INPUT /opt/texlive/2022/texmf-dist/tex/latex/l3kernel/expl3.sty
INPUT /opt/texlive/2022/texmf-dist/tex/latex/l3kernel/expl3.sty
INPUT /opt/texlive/2022/texmf-dist/tex/latex/l3kernel/expl3.sty
INPUT /opt/texlive/2022/texmf-dist/tex/latex/l3backend/l3backend-pdftex.def
INPUT /opt/texlive/2022/texmf-dist/tex/latex/l3backend/l3backend-pdftex.def
INPUT /opt/texlive/2022/texmf-dist/tex/latex/l3backend/l3backend-pdftex.def
INPUT /opt/texlive/2022/texmf-dist/tex/latex/l3backend/l3backend-pdftex.def
INPUT /opt/texlive/2022/texmf-dist/tex/latex/l3backend/l3backend-pdftex.def
INPUT /opt/texlive/2022/texmf-dist/tex/latex/l3backend/l3backend-pdftex.def
INPUT /opt/texlive/2022/texmf-dist/tex/latex/l3backend/l3backend-pdftex.def
INPUT /opt/texlive/2022/texmf-dist/tex/latex/l3backend/l3backend-pdftex.def
INPUT /opt/texlive/2022/texmf-dist/tex/latex/l3backend/l3backend-pdftex.def
INPUT /opt/texlive/2022/texmf-dist/tex/latex/l3backend/l3backend-pdftex.def
INPUT /opt/texlive/2022/texmf-dist/tex/latex/l3backend/l3backend-pdftex.def
INPUT /opt/texlive/2022/texmf-dist/tex/latex/biblatex/blx-case-expl3.sty
INPUT /opt/texlive/2022/texmf-dist/tex/latex/biblatex/blx-case-expl3.sty
INPUT /opt/texlive/2022/texmf-dist/tex/latex/biblatex/blx-case-expl3.sty
INPUT /opt/texlive/2022/texmf-dist/tex/latex/biblatex/blx-case-expl3.sty
INPUT /opt/texlive/2022/texmf-dist/tex/latex/biblatex/blx-case-expl3.sty
INPUT /opt/texlive/2022/texmf-dist/tex/latex/biblatex/blx-case-expl3.sty
INPUT /opt/texlive/2022/texmf-dist/tex/latex/biblatex/blx-case-expl3.sty
INPUT /opt/texlive/2022/texmf-dist/tex/latex/biblatex/blx-case-expl3.sty
INPUT /opt/texlive/2022/texmf-dist/tex/latex/biblatex/blx-case-expl3.sty
INPUT /opt/texlive/2022/texmf-dist/tex/latex/biblatex/blx-case-expl3.sty
INPUT /opt/texlive/2022/texmf-dist/tex/latex/biblatex/blx-case-expl3.sty
INPUT /opt/texlive/2022/texmf-dist/tex/latex/l3kernel/expl3.sty
INPUT /opt/texlive/2022/texmf-dist/tex/latex/l3packages/xparse/xparse.sty
INPUT /opt/texlive/2022/texmf-dist/tex/latex/l3packages/xparse/xparse.sty
INPUT /opt/texlive/2022/texmf-dist/tex/latex/l3packages/xparse/xparse.sty
INPUT /opt/texlive/2022/texmf-dist/tex/latex/l3packages/xparse/xparse.sty
INPUT /opt/texlive/2022/texmf-dist/tex/latex/l3packages/xparse/xparse.sty
INPUT /opt/texlive/2022/texmf-dist/tex/latex/l3packages/xparse/xparse.sty
INPUT /opt/texlive/2022/texmf-dist/tex/latex/l3packages/xparse/xparse.sty
INPUT /opt/texlive/2022/texmf-dist/tex/latex/l3packages/xparse/xparse.sty
INPUT /opt/texlive/2022/texmf-dist/tex/latex/l3packages/xparse/xparse.sty
INPUT /opt/texlive/2022/texmf-dist/tex/latex/l3packages/xparse/xparse.sty
INPUT /opt/texlive/2022/texmf-dist/tex/latex/l3packages/xparse/xparse.sty
INPUT /opt/texlive/2022/texmf-dist/tex/latex/l3kernel/expl3.sty
INPUT /opt/texlive/2022/texmf-dist/tex/latex/tools/afterpage.sty
INPUT /opt/texlive/2022/texmf-dist/tex/latex/tools/afterpage.sty
INPUT /opt/texlive/2022/texmf-dist/tex/latex/tools/afterpage.sty
INPUT /opt/texlive/2022/texmf-dist/tex/latex/tools/afterpage.sty
INPUT /opt/texlive/2022/texmf-dist/tex/latex/tools/afterpage.sty
INPUT /opt/texlive/2022/texmf-dist/tex/latex/tools/afterpage.sty
INPUT /opt/texlive/2022/texmf-dist/tex/latex/tools/afterpage.sty
INPUT /opt/texlive/2022/texmf-dist/tex/latex/tools/afterpage.sty
INPUT /opt/texlive/2022/texmf-dist/tex/latex/tools/afterpage.sty
INPUT /opt/texlive/2022/texmf-dist/tex/latex/tools/afterpage.sty
INPUT /opt/texlive/2022/texmf-dist/tex/latex/tools/afterpage.sty
INPUT /opt/texlive/2022/texmf-dist/tex/latex/base/inputenc.sty
INPUT /opt/texlive/2022/texmf-dist/tex/latex/base/inputenc.sty
INPUT /opt/texlive/2022/texmf-dist/tex/latex/base/inputenc.sty
INPUT /opt/texlive/2022/texmf-dist/tex/latex/base/inputenc.sty
INPUT /opt/texlive/2022/texmf-dist/tex/latex/base/inputenc.sty
INPUT /opt/texlive/2022/texmf-dist/tex/latex/base/inputenc.sty
INPUT /opt/texlive/2022/texmf-dist/tex/latex/base/inputenc.sty
INPUT /opt/texlive/2022/texmf-dist/tex/latex/base/inputenc.sty
INPUT /opt/texlive/2022/texmf-dist/tex/latex/base/inputenc.sty
INPUT /opt/texlive/2022/texmf-dist/tex/latex/base/inputenc.sty
INPUT /opt/texlive/2022/texmf-dist/tex/latex/base/inputenc.sty
INPUT /opt/texlive/2022/texmf-dist/tex/latex/base/fontenc.sty
INPUT /opt/texlive/2022/texmf-dist/tex/latex/base/fontenc.sty
INPUT /opt/texlive/2022/texmf-dist/tex/latex/base/fontenc.sty
INPUT /opt/texlive/2022/texmf-dist/tex/latex/base/fontenc.sty
INPUT /opt/texlive/2022/texmf-dist/tex/latex/base/fontenc.sty
INPUT /opt/texlive/2022/texmf-dist/tex/latex/base/fontenc.sty
INPUT /opt/texlive/2022/texmf-dist/tex/latex/base/fontenc.sty
INPUT /opt/texlive/2022/texmf-dist/tex/latex/base/fontenc.sty
INPUT /opt/texlive/2022/texmf-dist/tex/latex/base/fontenc.sty
INPUT /opt/texlive/2022/texmf-dist/tex/latex/base/fontenc.sty
INPUT /opt/texlive/2022/texmf-dist/tex/latex/base/fontenc.sty
INPUT /opt/texlive/2022/texmf-dist/fonts/map/fontname/texfonts.map
INPUT /opt/texlive/2022/texmf-dist/fonts/tfm/jknappen/ec/ecrm1000.tfm
INPUT /opt/texlive/2022/texmf-dist/tex/latex/lato/lato.sty
INPUT /opt/texlive/2022/texmf-dist/tex/latex/lato/lato.sty
INPUT /opt/texlive/2022/texmf-dist/tex/latex/lato/lato.sty
INPUT /opt/texlive/2022/texmf-dist/tex/latex/lato/lato.sty
INPUT /opt/texlive/2022/texmf-dist/tex/latex/lato/lato.sty
INPUT /opt/texlive/2022/texmf-dist/tex/latex/lato/lato.sty
INPUT /opt/texlive/2022/texmf-dist/tex/latex/lato/lato.sty
INPUT /opt/texlive/2022/texmf-dist/tex/latex/lato/lato.sty
INPUT /opt/texlive/2022/texmf-dist/tex/latex/lato/lato.sty
INPUT /opt/texlive/2022/texmf-dist/tex/latex/lato/lato.sty
INPUT /opt/texlive/2022/texmf-dist/tex/latex/lato/lato.sty
INPUT /opt/texlive/2022/texmf-dist/tex/latex/fontaxes/fontaxes.sty
INPUT /opt/texlive/2022/texmf-dist/tex/latex/fontaxes/fontaxes.sty
INPUT /opt/texlive/2022/texmf-dist/tex/latex/fontaxes/fontaxes.sty
INPUT /opt/texlive/2022/texmf-dist/tex/latex/fontaxes/fontaxes.sty
INPUT /opt/texlive/2022/texmf-dist/tex/latex/fontaxes/fontaxes.sty
INPUT /opt/texlive/2022/texmf-dist/tex/latex/fontaxes/fontaxes.sty
INPUT /opt/texlive/2022/texmf-dist/tex/latex/fontaxes/fontaxes.sty
INPUT /opt/texlive/2022/texmf-dist/tex/latex/fontaxes/fontaxes.sty
INPUT /opt/texlive/2022/texmf-dist/tex/latex/fontaxes/fontaxes.sty
INPUT /opt/texlive/2022/texmf-dist/tex/latex/fontaxes/fontaxes.sty
INPUT /opt/texlive/2022/texmf-dist/tex/latex/fontaxes/fontaxes.sty
INPUT /opt/texlive/2022/texmf-dist/tex/generic/iftex/ifluatex.sty
INPUT /opt/texlive/2022/texmf-dist/tex/generic/iftex/ifxetex.sty
INPUT /opt/texlive/2022/texmf-dist/tex/latex/xkeyval/xkeyval.sty
INPUT /opt/texlive/2022/texmf-dist/tex/latex/xkeyval/xkeyval.sty
INPUT /opt/texlive/2022/texmf-dist/tex/latex/xkeyval/xkeyval.sty
INPUT /opt/texlive/2022/texmf-dist/tex/latex/xkeyval/xkeyval.sty
INPUT /opt/texlive/2022/texmf-dist/tex/latex/xkeyval/xkeyval.sty
INPUT /opt/texlive/2022/texmf-dist/tex/latex/xkeyval/xkeyval.sty
INPUT /opt/texlive/2022/texmf-dist/tex/latex/xkeyval/xkeyval.sty
INPUT /opt/texlive/2022/texmf-dist/tex/latex/xkeyval/xkeyval.sty
INPUT /opt/texlive/2022/texmf-dist/tex/latex/xkeyval/xkeyval.sty
INPUT /opt/texlive/2022/texmf-dist/tex/latex/xkeyval/xkeyval.sty
INPUT /opt/texlive/2022/texmf-dist/tex/latex/xkeyval/xkeyval.sty
INPUT /opt/texlive/2022/texmf-dist/tex/generic/xkeyval/xkeyval.tex
INPUT /opt/texlive/2022/texmf-dist/tex/generic/xkeyval/xkvutils.tex
INPUT /opt/texlive/2022/texmf-dist/tex/latex/hyperref/hyperref.sty
INPUT /opt/texlive/2022/texmf-dist/tex/latex/hyperref/hyperref.sty
INPUT /opt/texlive/2022/texmf-dist/tex/latex/hyperref/hyperref.sty
INPUT /opt/texlive/2022/texmf-dist/tex/latex/hyperref/hyperref.sty
INPUT /opt/texlive/2022/texmf-dist/tex/latex/hyperref/hyperref.sty
INPUT /opt/texlive/2022/texmf-dist/tex/latex/hyperref/hyperref.sty
INPUT /opt/texlive/2022/texmf-dist/tex/latex/hyperref/hyperref.sty
INPUT /opt/texlive/2022/texmf-dist/tex/latex/hyperref/hyperref.sty
INPUT /opt/texlive/2022/texmf-dist/tex/latex/hyperref/hyperref.sty
INPUT /opt/texlive/2022/texmf-dist/tex/latex/hyperref/hyperref.sty
INPUT /opt/texlive/2022/texmf-dist/tex/latex/hyperref/hyperref.sty
INPUT /opt/texlive/2022/texmf-dist/tex/generic/ltxcmds/ltxcmds.sty
INPUT /opt/texlive/2022/texmf-dist/tex/generic/iftex/iftex.sty
INPUT /opt/texlive/2022/texmf-dist/tex/generic/pdftexcmds/pdftexcmds.sty
INPUT /opt/texlive/2022/texmf-dist/tex/generic/infwarerr/infwarerr.sty
INPUT /opt/texlive/2022/texmf-dist/tex/latex/graphics/keyval.sty
INPUT /opt/texlive/2022/texmf-dist/tex/generic/kvsetkeys/kvsetkeys.sty
INPUT /opt/texlive/2022/texmf-dist/tex/generic/kvdefinekeys/kvdefinekeys.sty
INPUT /opt/texlive/2022/texmf-dist/tex/generic/kvdefinekeys/kvdefinekeys.sty
INPUT /opt/texlive/2022/texmf-dist/tex/generic/kvdefinekeys/kvdefinekeys.sty
INPUT /opt/texlive/2022/texmf-dist/tex/generic/kvdefinekeys/kvdefinekeys.sty
INPUT /opt/texlive/2022/texmf-dist/tex/generic/kvdefinekeys/kvdefinekeys.sty
INPUT /opt/texlive/2022/texmf-dist/tex/generic/kvdefinekeys/kvdefinekeys.sty
INPUT /opt/texlive/2022/texmf-dist/tex/generic/kvdefinekeys/kvdefinekeys.sty
INPUT /opt/texlive/2022/texmf-dist/tex/generic/kvdefinekeys/kvdefinekeys.sty
INPUT /opt/texlive/2022/texmf-dist/tex/generic/kvdefinekeys/kvdefinekeys.sty
INPUT /opt/texlive/2022/texmf-dist/tex/generic/kvdefinekeys/kvdefinekeys.sty
INPUT /opt/texlive/2022/texmf-dist/tex/generic/kvdefinekeys/kvdefinekeys.sty
INPUT /opt/texlive/2022/texmf-dist/tex/generic/pdfescape/pdfescape.sty
INPUT /opt/texlive/2022/texmf-dist/tex/generic/pdfescape/pdfescape.sty
INPUT /opt/texlive/2022/texmf-dist/tex/generic/pdfescape/pdfescape.sty
INPUT /opt/texlive/2022/texmf-dist/tex/generic/pdfescape/pdfescape.sty
INPUT /opt/texlive/2022/texmf-dist/tex/generic/pdfescape/pdfescape.sty
INPUT /opt/texlive/2022/texmf-dist/tex/generic/pdfescape/pdfescape.sty
INPUT /opt/texlive/2022/texmf-dist/tex/generic/pdfescape/pdfescape.sty
INPUT /opt/texlive/2022/texmf-dist/tex/generic/pdfescape/pdfescape.sty
INPUT /opt/texlive/2022/texmf-dist/tex/generic/pdfescape/pdfescape.sty
INPUT /opt/texlive/2022/texmf-dist/tex/generic/pdfescape/pdfescape.sty
INPUT /opt/texlive/2022/texmf-dist/tex/generic/pdfescape/pdfescape.sty
INPUT /opt/texlive/2022/texmf-dist/tex/generic/ltxcmds/ltxcmds.sty
INPUT /opt/texlive/2022/texmf-dist/tex/generic/pdftexcmds/pdftexcmds.sty
INPUT /opt/texlive/2022/texmf-dist/tex/latex/hycolor/hycolor.sty
INPUT /opt/texlive/2022/texmf-dist/tex/latex/hycolor/hycolor.sty
INPUT /opt/texlive/2022/texmf-dist/tex/latex/hycolor/hycolor.sty
INPUT /opt/texlive/2022/texmf-dist/tex/latex/hycolor/hycolor.sty
INPUT /opt/texlive/2022/texmf-dist/tex/latex/hycolor/hycolor.sty
INPUT /opt/texlive/2022/texmf-dist/tex/latex/hycolor/hycolor.sty
INPUT /opt/texlive/2022/texmf-dist/tex/latex/hycolor/hycolor.sty
INPUT /opt/texlive/2022/texmf-dist/tex/latex/hycolor/hycolor.sty
INPUT /opt/texlive/2022/texmf-dist/tex/latex/hycolor/hycolor.sty
INPUT /opt/texlive/2022/texmf-dist/tex/latex/hycolor/hycolor.sty
INPUT /opt/texlive/2022/texmf-dist/tex/latex/hycolor/hycolor.sty
INPUT /opt/texlive/2022/texmf-dist/tex/latex/letltxmacro/letltxmacro.sty
INPUT /opt/texlive/2022/texmf-dist/tex/latex/letltxmacro/letltxmacro.sty
INPUT /opt/texlive/2022/texmf-dist/tex/latex/letltxmacro/letltxmacro.sty
INPUT /opt/texlive/2022/texmf-dist/tex/latex/letltxmacro/letltxmacro.sty
INPUT /opt/texlive/2022/texmf-dist/tex/latex/letltxmacro/letltxmacro.sty
INPUT /opt/texlive/2022/texmf-dist/tex/latex/letltxmacro/letltxmacro.sty
INPUT /opt/texlive/2022/texmf-dist/tex/latex/letltxmacro/letltxmacro.sty
INPUT /opt/texlive/2022/texmf-dist/tex/latex/letltxmacro/letltxmacro.sty
INPUT /opt/texlive/2022/texmf-dist/tex/latex/letltxmacro/letltxmacro.sty
INPUT /opt/texlive/2022/texmf-dist/tex/latex/letltxmacro/letltxmacro.sty
INPUT /opt/texlive/2022/texmf-dist/tex/latex/letltxmacro/letltxmacro.sty
INPUT /opt/texlive/2022/texmf-dist/tex/latex/auxhook/auxhook.sty
INPUT /opt/texlive/2022/texmf-dist/tex/latex/auxhook/auxhook.sty
INPUT /opt/texlive/2022/texmf-dist/tex/latex/auxhook/auxhook.sty
INPUT /opt/texlive/2022/texmf-dist/tex/latex/auxhook/auxhook.sty
INPUT /opt/texlive/2022/texmf-dist/tex/latex/auxhook/auxhook.sty
INPUT /opt/texlive/2022/texmf-dist/tex/latex/auxhook/auxhook.sty
INPUT /opt/texlive/2022/texmf-dist/tex/latex/auxhook/auxhook.sty
INPUT /opt/texlive/2022/texmf-dist/tex/latex/auxhook/auxhook.sty
INPUT /opt/texlive/2022/texmf-dist/tex/latex/auxhook/auxhook.sty
INPUT /opt/texlive/2022/texmf-dist/tex/latex/auxhook/auxhook.sty
INPUT /opt/texlive/2022/texmf-dist/tex/latex/auxhook/auxhook.sty
INPUT /opt/texlive/2022/texmf-dist/tex/latex/hyperref/nameref.sty
INPUT /opt/texlive/2022/texmf-dist/tex/latex/hyperref/nameref.sty
INPUT /opt/texlive/2022/texmf-dist/tex/latex/hyperref/nameref.sty
INPUT /opt/texlive/2022/texmf-dist/tex/latex/hyperref/nameref.sty
INPUT /opt/texlive/2022/texmf-dist/tex/latex/hyperref/nameref.sty
INPUT /opt/texlive/2022/texmf-dist/tex/latex/hyperref/nameref.sty
INPUT /opt/texlive/2022/texmf-dist/tex/latex/hyperref/nameref.sty
INPUT /opt/texlive/2022/texmf-dist/tex/latex/hyperref/nameref.sty
INPUT /opt/texlive/2022/texmf-dist/tex/latex/hyperref/nameref.sty
INPUT /opt/texlive/2022/texmf-dist/tex/latex/hyperref/nameref.sty
INPUT /opt/texlive/2022/texmf-dist/tex/latex/hyperref/nameref.sty
INPUT /opt/texlive/2022/texmf-dist/tex/latex/refcount/refcount.sty
INPUT /opt/texlive/2022/texmf-dist/tex/latex/refcount/refcount.sty
INPUT /opt/texlive/2022/texmf-dist/tex/latex/refcount/refcount.sty
INPUT /opt/texlive/2022/texmf-dist/tex/latex/refcount/refcount.sty
INPUT /opt/texlive/2022/texmf-dist/tex/latex/refcount/refcount.sty
INPUT /opt/texlive/2022/texmf-dist/tex/latex/refcount/refcount.sty
INPUT /opt/texlive/2022/texmf-dist/tex/latex/refcount/refcount.sty
INPUT /opt/texlive/2022/texmf-dist/tex/latex/refcount/refcount.sty
INPUT /opt/texlive/2022/texmf-dist/tex/latex/refcount/refcount.sty
INPUT /opt/texlive/2022/texmf-dist/tex/latex/refcount/refcount.sty
INPUT /opt/texlive/2022/texmf-dist/tex/latex/refcount/refcount.sty
INPUT /opt/texlive/2022/texmf-dist/tex/generic/ltxcmds/ltxcmds.sty
INPUT /opt/texlive/2022/texmf-dist/tex/generic/infwarerr/infwarerr.sty
INPUT /opt/texlive/2022/texmf-dist/tex/generic/gettitlestring/gettitlestring.sty
INPUT /opt/texlive/2022/texmf-dist/tex/generic/gettitlestring/gettitlestring.sty
INPUT /opt/texlive/2022/texmf-dist/tex/generic/gettitlestring/gettitlestring.sty
INPUT /opt/texlive/2022/texmf-dist/tex/generic/gettitlestring/gettitlestring.sty
INPUT /opt/texlive/2022/texmf-dist/tex/generic/gettitlestring/gettitlestring.sty
INPUT /opt/texlive/2022/texmf-dist/tex/generic/gettitlestring/gettitlestring.sty
INPUT /opt/texlive/2022/texmf-dist/tex/generic/gettitlestring/gettitlestring.sty
INPUT /opt/texlive/2022/texmf-dist/tex/generic/gettitlestring/gettitlestring.sty
INPUT /opt/texlive/2022/texmf-dist/tex/generic/gettitlestring/gettitlestring.sty
INPUT /opt/texlive/2022/texmf-dist/tex/generic/gettitlestring/gettitlestring.sty
INPUT /opt/texlive/2022/texmf-dist/tex/generic/gettitlestring/gettitlestring.sty
INPUT /opt/texlive/2022/texmf-dist/tex/latex/kvoptions/kvoptions.sty
INPUT /opt/texlive/2022/texmf-dist/tex/generic/ltxcmds/ltxcmds.sty
INPUT /opt/texlive/2022/texmf-dist/tex/latex/kvoptions/kvoptions.sty
INPUT /opt/texlive/2022/texmf-dist/tex/latex/hyperref/pd1enc.def
INPUT /opt/texlive/2022/texmf-dist/tex/latex/hyperref/pd1enc.def
INPUT /opt/texlive/2022/texmf-dist/tex/latex/hyperref/pd1enc.def
INPUT /opt/texlive/2022/texmf-dist/tex/latex/hyperref/pd1enc.def
INPUT /opt/texlive/2022/texmf-dist/tex/generic/intcalc/intcalc.sty
INPUT /opt/texlive/2022/texmf-dist/tex/generic/intcalc/intcalc.sty
INPUT /opt/texlive/2022/texmf-dist/tex/generic/intcalc/intcalc.sty
INPUT /opt/texlive/2022/texmf-dist/tex/generic/intcalc/intcalc.sty
INPUT /opt/texlive/2022/texmf-dist/tex/generic/intcalc/intcalc.sty
INPUT /opt/texlive/2022/texmf-dist/tex/generic/intcalc/intcalc.sty
INPUT /opt/texlive/2022/texmf-dist/tex/generic/intcalc/intcalc.sty
INPUT /opt/texlive/2022/texmf-dist/tex/generic/intcalc/intcalc.sty
INPUT /opt/texlive/2022/texmf-dist/tex/generic/intcalc/intcalc.sty
INPUT /opt/texlive/2022/texmf-dist/tex/generic/intcalc/intcalc.sty
INPUT /opt/texlive/2022/texmf-dist/tex/generic/intcalc/intcalc.sty
INPUT /opt/texlive/2022/texmf-dist/tex/generic/etexcmds/etexcmds.sty
INPUT /opt/texlive/2022/texmf-dist/tex/generic/etexcmds/etexcmds.sty
INPUT /opt/texlive/2022/texmf-dist/tex/generic/etexcmds/etexcmds.sty
INPUT /opt/texlive/2022/texmf-dist/tex/generic/etexcmds/etexcmds.sty
INPUT /opt/texlive/2022/texmf-dist/tex/generic/etexcmds/etexcmds.sty
INPUT /opt/texlive/2022/texmf-dist/tex/generic/etexcmds/etexcmds.sty
INPUT /opt/texlive/2022/texmf-dist/tex/generic/etexcmds/etexcmds.sty
INPUT /opt/texlive/2022/texmf-dist/tex/generic/etexcmds/etexcmds.sty
INPUT /opt/texlive/2022/texmf-dist/tex/generic/etexcmds/etexcmds.sty
INPUT /opt/texlive/2022/texmf-dist/tex/generic/etexcmds/etexcmds.sty
INPUT /opt/texlive/2022/texmf-dist/tex/generic/etexcmds/etexcmds.sty
INPUT /opt/texlive/2022/texmf-dist/tex/generic/infwarerr/infwarerr.sty
INPUT /opt/texlive/2022/texmf-dist/tex/generic/iftex/iftex.sty
INPUT /opt/texlive/2022/texmf-dist/tex/latex/hyperref/puenc.def
INPUT /opt/texlive/2022/texmf-dist/tex/latex/hyperref/puenc.def
INPUT /opt/texlive/2022/texmf-dist/tex/latex/hyperref/puenc.def
INPUT /opt/texlive/2022/texmf-dist/tex/latex/hyperref/puenc.def
INPUT /opt/texlive/2022/texmf-dist/tex/latex/url/url.sty
INPUT /opt/texlive/2022/texmf-dist/tex/generic/bitset/bitset.sty
INPUT /opt/texlive/2022/texmf-dist/tex/generic/bitset/bitset.sty
INPUT /opt/texlive/2022/texmf-dist/tex/generic/bitset/bitset.sty
INPUT /opt/texlive/2022/texmf-dist/tex/generic/bitset/bitset.sty
INPUT /opt/texlive/2022/texmf-dist/tex/generic/bitset/bitset.sty
INPUT /opt/texlive/2022/texmf-dist/tex/generic/bitset/bitset.sty
INPUT /opt/texlive/2022/texmf-dist/tex/generic/bitset/bitset.sty
INPUT /opt/texlive/2022/texmf-dist/tex/generic/bitset/bitset.sty
INPUT /opt/texlive/2022/texmf-dist/tex/generic/bitset/bitset.sty
INPUT /opt/texlive/2022/texmf-dist/tex/generic/bitset/bitset.sty
INPUT /opt/texlive/2022/texmf-dist/tex/generic/bitset/bitset.sty
INPUT /opt/texlive/2022/texmf-dist/tex/generic/infwarerr/infwarerr.sty
INPUT /opt/texlive/2022/texmf-dist/tex/generic/intcalc/intcalc.sty
INPUT /opt/texlive/2022/texmf-dist/tex/generic/bigintcalc/bigintcalc.sty
INPUT /opt/texlive/2022/texmf-dist/tex/generic/bigintcalc/bigintcalc.sty
INPUT /opt/texlive/2022/texmf-dist/tex/generic/bigintcalc/bigintcalc.sty
INPUT /opt/texlive/2022/texmf-dist/tex/generic/bigintcalc/bigintcalc.sty
INPUT /opt/texlive/2022/texmf-dist/tex/generic/bigintcalc/bigintcalc.sty
INPUT /opt/texlive/2022/texmf-dist/tex/generic/bigintcalc/bigintcalc.sty
INPUT /opt/texlive/2022/texmf-dist/tex/generic/bigintcalc/bigintcalc.sty
INPUT /opt/texlive/2022/texmf-dist/tex/generic/bigintcalc/bigintcalc.sty
INPUT /opt/texlive/2022/texmf-dist/tex/generic/bigintcalc/bigintcalc.sty
INPUT /opt/texlive/2022/texmf-dist/tex/generic/bigintcalc/bigintcalc.sty
INPUT /opt/texlive/2022/texmf-dist/tex/generic/bigintcalc/bigintcalc.sty
INPUT /opt/texlive/2022/texmf-dist/tex/generic/pdftexcmds/pdftexcmds.sty
INPUT /opt/texlive/2022/texmf-dist/tex/generic/atbegshi/atbegshi.sty
INPUT /opt/texlive/2022/texmf-dist/tex/generic/atbegshi/atbegshi.sty
INPUT /opt/texlive/2022/texmf-dist/tex/generic/atbegshi/atbegshi.sty
INPUT /opt/texlive/2022/texmf-dist/tex/latex/base/atbegshi-ltx.sty
INPUT /opt/texlive/2022/texmf-dist/tex/generic/atbegshi/atbegshi.sty
INPUT /opt/texlive/2022/texmf-dist/tex/generic/atbegshi/atbegshi.sty
INPUT /opt/texlive/2022/texmf-dist/tex/latex/base/atbegshi-ltx.sty
INPUT /opt/texlive/2022/texmf-dist/tex/generic/atbegshi/atbegshi.sty
INPUT /opt/texlive/2022/texmf-dist/tex/latex/base/atbegshi-ltx.sty
INPUT /opt/texlive/2022/texmf-dist/tex/latex/base/atbegshi-ltx.sty
INPUT /opt/texlive/2022/texmf-dist/tex/generic/atbegshi/atbegshi.sty
INPUT /opt/texlive/2022/texmf-dist/tex/generic/atbegshi/atbegshi.sty
INPUT /opt/texlive/2022/texmf-dist/tex/latex/base/atbegshi-ltx.sty
INPUT /opt/texlive/2022/texmf-dist/tex/latex/base/atbegshi-ltx.sty
INPUT /opt/texlive/2022/texmf-dist/tex/generic/atbegshi/atbegshi.sty
INPUT /opt/texlive/2022/texmf-dist/tex/latex/base/atbegshi-ltx.sty
INPUT /opt/texlive/2022/texmf-dist/tex/latex/hyperref/hpdftex.def
INPUT /opt/texlive/2022/texmf-dist/tex/latex/hyperref/hpdftex.def
INPUT /opt/texlive/2022/texmf-dist/tex/latex/hyperref/hpdftex.def
INPUT /opt/texlive/2022/texmf-dist/tex/latex/hyperref/hpdftex.def
INPUT /opt/texlive/2022/texmf-dist/tex/latex/atveryend/atveryend.sty
INPUT /opt/texlive/2022/texmf-dist/tex/latex/atveryend/atveryend.sty
INPUT /opt/texlive/2022/texmf-dist/tex/latex/atveryend/atveryend.sty
INPUT /opt/texlive/2022/texmf-dist/tex/latex/base/atveryend-ltx.sty
INPUT /opt/texlive/2022/texmf-dist/tex/latex/atveryend/atveryend.sty
INPUT /opt/texlive/2022/texmf-dist/tex/latex/atveryend/atveryend.sty
INPUT /opt/texlive/2022/texmf-dist/tex/latex/base/atveryend-ltx.sty
INPUT /opt/texlive/2022/texmf-dist/tex/latex/atveryend/atveryend.sty
INPUT /opt/texlive/2022/texmf-dist/tex/latex/base/atveryend-ltx.sty
INPUT /opt/texlive/2022/texmf-dist/tex/latex/base/atveryend-ltx.sty
INPUT /opt/texlive/2022/texmf-dist/tex/latex/atveryend/atveryend.sty
INPUT /opt/texlive/2022/texmf-dist/tex/latex/atveryend/atveryend.sty
INPUT /opt/texlive/2022/texmf-dist/tex/latex/base/atveryend-ltx.sty
INPUT /opt/texlive/2022/texmf-dist/tex/latex/base/atveryend-ltx.sty
INPUT /opt/texlive/2022/texmf-dist/tex/latex/atveryend/atveryend.sty
INPUT /opt/texlive/2022/texmf-dist/tex/latex/base/atveryend-ltx.sty
INPUT /opt/texlive/2022/texmf-dist/tex/latex/rerunfilecheck/rerunfilecheck.sty
INPUT /opt/texlive/2022/texmf-dist/tex/latex/rerunfilecheck/rerunfilecheck.sty
INPUT /opt/texlive/2022/texmf-dist/tex/latex/rerunfilecheck/rerunfilecheck.sty
INPUT /opt/texlive/2022/texmf-dist/tex/latex/rerunfilecheck/rerunfilecheck.sty
INPUT /opt/texlive/2022/texmf-dist/tex/latex/rerunfilecheck/rerunfilecheck.sty
INPUT /opt/texlive/2022/texmf-dist/tex/latex/rerunfilecheck/rerunfilecheck.sty
INPUT /opt/texlive/2022/texmf-dist/tex/latex/rerunfilecheck/rerunfilecheck.sty
INPUT /opt/texlive/2022/texmf-dist/tex/latex/rerunfilecheck/rerunfilecheck.sty
INPUT /opt/texlive/2022/texmf-dist/tex/latex/rerunfilecheck/rerunfilecheck.sty
INPUT /opt/texlive/2022/texmf-dist/tex/latex/rerunfilecheck/rerunfilecheck.sty
INPUT /opt/texlive/2022/texmf-dist/tex/latex/rerunfilecheck/rerunfilecheck.sty
INPUT /opt/texlive/2022/texmf-dist/tex/latex/kvoptions/kvoptions.sty
INPUT /opt/texlive/2022/texmf-dist/tex/generic/infwarerr/infwarerr.sty
INPUT /opt/texlive/2022/texmf-dist/tex/generic/pdftexcmds/pdftexcmds.sty
INPUT /opt/texlive/2022/texmf-dist/tex/latex/atveryend/atveryend.sty
INPUT /opt/texlive/2022/texmf-dist/tex/generic/uniquecounter/uniquecounter.sty
INPUT /opt/texlive/2022/texmf-dist/tex/generic/uniquecounter/uniquecounter.sty
INPUT /opt/texlive/2022/texmf-dist/tex/generic/uniquecounter/uniquecounter.sty
INPUT /opt/texlive/2022/texmf-dist/tex/generic/uniquecounter/uniquecounter.sty
INPUT /opt/texlive/2022/texmf-dist/tex/generic/uniquecounter/uniquecounter.sty
INPUT /opt/texlive/2022/texmf-dist/tex/generic/uniquecounter/uniquecounter.sty
INPUT /opt/texlive/2022/texmf-dist/tex/generic/uniquecounter/uniquecounter.sty
INPUT /opt/texlive/2022/texmf-dist/tex/generic/uniquecounter/uniquecounter.sty
INPUT /opt/texlive/2022/texmf-dist/tex/generic/uniquecounter/uniquecounter.sty
INPUT /opt/texlive/2022/texmf-dist/tex/generic/uniquecounter/uniquecounter.sty
INPUT /opt/texlive/2022/texmf-dist/tex/generic/uniquecounter/uniquecounter.sty
INPUT /opt/texlive/2022/texmf-dist/tex/generic/bigintcalc/bigintcalc.sty
INPUT /opt/texlive/2022/texmf-dist/tex/generic/infwarerr/infwarerr.sty
INPUT /opt/texlive/2022/texmf-dist/tex/latex/lato/T1lato-TLF.fd
INPUT /opt/texlive/2022/texmf-dist/tex/latex/lato/T1lato-TLF.fd
INPUT /opt/texlive/2022/texmf-dist/tex/latex/lato/T1lato-TLF.fd
INPUT /opt/texlive/2022/texmf-dist/tex/latex/lato/T1lato-TLF.fd
INPUT /opt/texlive/2022/texmf-dist/fonts/tfm/typoland/lato/Lato-Regular-T1-TLF.tfm
INPUT ./main.aux
INPUT main.aux
INPUT main.aux
OUTPUT main.aux
INPUT /opt/texlive/2022/texmf-dist/tex/context/base/mkii/supp-pdf.mkii
INPUT /opt/texlive/2022/texmf-dist/tex/context/base/mkii/supp-pdf.mkii
INPUT /opt/texlive/2022/texmf-dist/tex/context/base/mkii/supp-pdf.mkii
INPUT /opt/texlive/2022/texmf-dist/tex/context/base/mkii/supp-pdf.mkii
INPUT /opt/texlive/2022/texmf-dist/tex/latex/epstopdf-pkg/epstopdf-base.sty
INPUT /opt/texlive/2022/texmf-dist/tex/latex/epstopdf-pkg/epstopdf-base.sty
INPUT /opt/texlive/2022/texmf-dist/tex/latex/epstopdf-pkg/epstopdf-base.sty
INPUT /opt/texlive/2022/texmf-dist/tex/latex/epstopdf-pkg/epstopdf-base.sty
INPUT /opt/texlive/2022/texmf-dist/tex/latex/epstopdf-pkg/epstopdf-base.sty
INPUT /opt/texlive/2022/texmf-dist/tex/latex/epstopdf-pkg/epstopdf-base.sty
INPUT /opt/texlive/2022/texmf-dist/tex/latex/epstopdf-pkg/epstopdf-base.sty
INPUT /opt/texlive/2022/texmf-dist/tex/latex/epstopdf-pkg/epstopdf-base.sty
INPUT /opt/texlive/2022/texmf-dist/tex/latex/epstopdf-pkg/epstopdf-base.sty
INPUT /opt/texlive/2022/texmf-dist/tex/latex/epstopdf-pkg/epstopdf-base.sty
INPUT /opt/texlive/2022/texmf-dist/tex/latex/epstopdf-pkg/epstopdf-base.sty
INPUT /opt/texlive/2022/texmf-dist/tex/latex/latexconfig/epstopdf-sys.cfg
INPUT /opt/texlive/2022/texmf-dist/tex/latex/latexconfig/epstopdf-sys.cfg
INPUT /opt/texlive/2022/texmf-dist/tex/latex/latexconfig/epstopdf-sys.cfg
INPUT /opt/texlive/2022/texmf-dist/tex/latex/latexconfig/epstopdf-sys.cfg
INPUT /opt/texlive/2022/texmf-dist/tex/latex/biblatex/lbx/english.lbx
INPUT /opt/texlive/2022/texmf-dist/tex/latex/biblatex/lbx/english.lbx
INPUT /opt/texlive/2022/texmf-dist/tex/latex/biblatex/lbx/english.lbx
OUTPUT main.bcf
INPUT main.bbl
INPUT ./main.bbl
INPUT main.bbl
INPUT ./main.bbl
INPUT ./main.bbl
INPUT main.bbl
INPUT /opt/texlive/2022/texmf-dist/tex/latex/graphics/color.sty
INPUT ./main.out
INPUT main.out
INPUT ./main.out
INPUT main.out
INPUT ./main.out
INPUT main.out
INPUT ./main.out
INPUT main.out
INPUT ./main.out
INPUT ./main.out
OUTPUT main.out
OUTPUT main.pdf
INPUT /opt/texlive/2022/texmf-dist/fonts/tfm/typoland/lato/Lato-Regular-T1-TLF.tfm
INPUT /opt/texlive/2022/texmf-dist/fonts/tfm/typoland/lato/Lato-Bold-T1-TLF.tfm
INPUT /opt/texlive/2022/texmf-dist/fonts/tfm/typoland/lato/Lato-Regular-T1-TLF.tfm
INPUT /opt/texlive/2022/texmf-dist/fonts/tfm/typoland/lato/Lato-Bold-T1-TLF.tfm
INPUT /opt/texlive/2022/texmf-dist/fonts/tfm/typoland/lato/Lato-Regular-T1-TLF.tfm
INPUT /opt/texlive/2022/texmf-dist/fonts/tfm/typoland/lato/Lato-Bold-T1-TLF.tfm
INPUT /opt/texlive/2022/texmf-dist/tex/latex/fontawesome/ufontawesomeone.fd
INPUT /opt/texlive/2022/texmf-dist/tex/latex/fontawesome/ufontawesomeone.fd
INPUT /opt/texlive/2022/texmf-dist/tex/latex/fontawesome/ufontawesomeone.fd
INPUT /opt/texlive/2022/texmf-dist/tex/latex/fontawesome/ufontawesomeone.fd
INPUT /opt/texlive/2022/texmf-dist/fonts/tfm/public/fontawesome/FontAwesome--fontawesomeone.tfm
INPUT /opt/texlive/2022/texmf-dist/tex/latex/fontawesome/ufontawesometwo.fd
INPUT /opt/texlive/2022/texmf-dist/tex/latex/fontawesome/ufontawesometwo.fd
INPUT /opt/texlive/2022/texmf-dist/tex/latex/fontawesome/ufontawesometwo.fd
INPUT /opt/texlive/2022/texmf-dist/tex/latex/fontawesome/ufontawesometwo.fd
INPUT /opt/texlive/2022/texmf-dist/fonts/tfm/public/fontawesome/FontAwesome--fontawesometwo.tfm
INPUT /opt/texlive/2022/texmf-dist/fonts/tfm/public/amsfonts/cmextra/cmex7.tfm
INPUT ./MYPIC.jpg
INPUT MYPIC.jpg
INPUT ./MYPIC.jpg
INPUT ./MYPIC.jpg
INPUT ./page1sidebar.tex
INPUT ./page1sidebar.tex
INPUT ./page1sidebar.tex
INPUT page1sidebar.tex
INPUT ./page1sidebar.tex
INPUT ./page1sidebar.tex
INPUT page1sidebar.tex
INPUT /opt/texlive/2022/texmf-dist/fonts/tfm/typoland/lato/Lato-Regular-T1-TLF.tfm
INPUT /opt/texlive/2022/texmf-dist/fonts/tfm/typoland/lato/Lato-Bold-T1-TLF.tfm
INPUT /opt/texlive/2022/texmf-dist/fonts/tfm/typoland/lato/Lato-Bold-T1-TLF.tfm
INPUT /opt/texlive/2022/texmf-dist/fonts/tfm/typoland/lato/Lato-Regular-T1-TLF.tfm
INPUT /opt/texlive/2022/texmf-dist/tex/latex/lato/TS1lato-TLF.fd
INPUT /opt/texlive/2022/texmf-dist/tex/latex/lato/TS1lato-TLF.fd
INPUT /opt/texlive/2022/texmf-dist/tex/latex/lato/TS1lato-TLF.fd
INPUT /opt/texlive/2022/texmf-dist/tex/latex/lato/TS1lato-TLF.fd
INPUT /opt/texlive/2022/texmf-dist/fonts/tfm/typoland/lato/Lato-Regular-TS1-TLF.tfm
INPUT /opt/texlive/2022/texmf-dist/fonts/vf/typoland/lato/Lato-Bold-T1-TLF.vf
INPUT /opt/texlive/2022/texmf-dist/fonts/tfm/typoland/lato/Lato-Bold-T1-TLF--base.tfm
INPUT /opt/texlive/2022/texmf-var/fonts/map/pdftex/updmap/pdftex.map
INPUT /opt/texlive/2022/texmf-dist/fonts/vf/typoland/lato/Lato-Bold-T1-TLF.vf
INPUT /opt/texlive/2022/texmf-dist/fonts/tfm/typoland/lato/Lato-Bold-T1-TLF--base.tfm
INPUT /opt/texlive/2022/texmf-dist/fonts/vf/typoland/lato/Lato-Bold-T1-TLF.vf
INPUT /opt/texlive/2022/texmf-dist/fonts/tfm/typoland/lato/Lato-Bold-T1-TLF--base.tfm
INPUT /opt/texlive/2022/texmf-dist/fonts/vf/typoland/lato/Lato-Bold-T1-TLF.vf
INPUT /opt/texlive/2022/texmf-dist/fonts/tfm/typoland/lato/Lato-Bold-T1-TLF--base.tfm
INPUT /opt/texlive/2022/texmf-dist/fonts/vf/typoland/lato/Lato-Regular-T1-TLF.vf
INPUT /opt/texlive/2022/texmf-dist/fonts/tfm/typoland/lato/Lato-Regular-T1-TLF--base.tfm
INPUT /opt/texlive/2022/texmf-dist/fonts/vf/typoland/lato/Lato-Bold-T1-TLF.vf
INPUT /opt/texlive/2022/texmf-dist/fonts/tfm/typoland/lato/Lato-Bold-T1-TLF--base.tfm
INPUT /opt/texlive/2022/texmf-dist/fonts/vf/typoland/lato/Lato-Regular-T1-TLF.vf
INPUT /opt/texlive/2022/texmf-dist/fonts/tfm/typoland/lato/Lato-Regular-T1-TLF--base.tfm
INPUT /opt/texlive/2022/texmf-dist/fonts/vf/typoland/lato/Lato-Regular-TS1-TLF.vf
INPUT /opt/texlive/2022/texmf-dist/fonts/tfm/typoland/lato/Lato-Regular-TS1-TLF--base.tfm
INPUT ./page2sidebar.tex
INPUT ./page2sidebar.tex
INPUT ./page2sidebar.tex
INPUT page2sidebar.tex
INPUT ./page2sidebar.tex
INPUT ./page2sidebar.tex
INPUT page2sidebar.tex
INPUT main.aux
INPUT ./main.out
INPUT ./main.out
INPUT main.run.xml
OUTPUT main.run.xml
INPUT /opt/texlive/2022/texmf-dist/fonts/enc/dvips/lato/a_rt66h3.enc
INPUT /opt/texlive/2022/texmf-dist/fonts/enc/dvips/lato/a_cl4kdn.enc
INPUT /opt/texlive/2022/texmf-dist/fonts/enc/dvips/fontawesome/fontawesometwo.enc
INPUT /opt/texlive/2022/texmf-dist/fonts/enc/dvips/fontawesome/fontawesomeone.enc
INPUT /opt/texlive/2022/texmf-dist/fonts/type1/public/fontawesome/FontAwesome.pfb
INPUT /opt/texlive/2022/texmf-dist/fonts/type1/typoland/lato/Lato-Bold.pfb
INPUT /opt/texlive/2022/texmf-dist/fonts/type1/typoland/lato/Lato-Regular.pfb
